<?xml version="1.0" encoding="UTF-8" standalone="no"?>
<!-- Created with Inkscape (http://www.inkscape.org/) -->
<svg xmlns:dc="http://purl.org/dc/elements/1.1/" xmlns:cc="http://creativecommons.org/ns#" xmlns:rdf="http://www.w3.org/1999/02/22-rdf-syntax-ns#" xmlns:svg="http://www.w3.org/2000/svg" xmlns="http://www.w3.org/2000/svg" xmlns:xlink="http://www.w3.org/1999/xlink" xmlns:sodipodi="http://sodipodi.sourceforge.net/DTD/sodipodi-0.dtd" xmlns:inkscape="http://www.inkscape.org/namespaces/inkscape" width="744.09448819" height="1052.3622047" id="svg2" version="1.1">
  <defs id="defs4">
    <marker orient="auto" refY="0.0" refX="0.0" id="Arrow1Mend" style="overflow:visible;">
      <path id="path4481" d="M 0.0,0.0 L 5.0,-5.0 L -12.5,0.0 L 5.0,5.0 L 0.0,0.0 z " style="fill-rule:evenodd;stroke:#000000;stroke-width:1.0pt;" transform="scale(0.4) rotate(180) translate(10,0)"/>
    </marker>
    <marker orient="auto" refY="0.0" refX="0.0" id="Arrow1Mstart" style="overflow:visible">
      <path id="path4478" d="M 0.0,0.0 L 5.0,-5.0 L -12.5,0.0 L 5.0,5.0 L 0.0,0.0 z " style="fill-rule:evenodd;stroke:#000000;stroke-width:1.0pt" transform="scale(0.4) translate(10,0)"/>
    </marker>
    
    
    
    
    
    
    
  </defs>
  
  <metadata id="metadata7">
    
  </metadata>
  <g id="layer1">
    <path style="fill:none;stroke:#000000;stroke-width:1px;stroke-linecap:butt;stroke-linejoin:miter;stroke-opacity:1" d="m 261.17662,603.37438 0,70.75" id="path3906"/>
    <path style="fill:none;stroke:#000000;stroke-width:1px;stroke-linecap:butt;stroke-linejoin:miter;stroke-opacity:1" d="m 332.46089,678.13888 0,48" id="path3910"/>
    <rect style="color:#000000;fill:#ffffff;fill-opacity:1;stroke:#000000;stroke-width:1.25;stroke-linecap:butt;stroke-linejoin:miter;stroke-miterlimit:4;stroke-opacity:1;stroke-dasharray:none;stroke-dashoffset:0;marker:none;visibility:visible;display:inline;overflow:visible;enable-background:accumulate" id="rect4249" width="351" height="14" x="231.41422" y="668.78857"/>
    <path style="fill:none;stroke:#000000;stroke-width:1px;stroke-linecap:butt;stroke-linejoin:miter;stroke-opacity:1" d="m 357.41421,307.78859 0,230" id="path3084"/>
        <text xml:space="preserve" style="font-size:10px;font-style:normal;font-variant:normal;font-weight:normal;font-stretch:normal;text-align:start;line-height:125%;letter-spacing:0px;word-spacing:0px;text-anchor:start;fill:#000000;fill-opacity:1;stroke:none;font-family:Univers Else;-inkscape-font-specification:Univers Else" x="37.107147" y="38.612183" id="text2993"><tspan id="tspan2995" x="37.107147" y="38.612183">2013 infrastructure: Rely</tspan></text>
    <text xml:space="preserve" style="font-size:10px;font-style:normal;font-variant:normal;font-weight:normal;font-stretch:normal;text-align:start;line-height:125%;letter-spacing:0px;word-spacing:0px;text-anchor:start;fill:#000000;fill-opacity:1;stroke:none;font-family:Univers Else;-inkscape-font-specification:Univers Else" x="269.74518" y="761.63391" id="text2997"><tspan id="tspan2999" x="269.74518" y="761.63391">192.168.200.1</tspan></text>
    <text xml:space="preserve" style="font-size:10px;font-style:normal;font-variant:normal;font-weight:normal;font-stretch:normal;text-align:start;line-height:125%;letter-spacing:0px;word-spacing:0px;text-anchor:start;fill:#000000;fill-opacity:1;stroke:none;font-family:Univers Else;-inkscape-font-specification:Univers Else" x="375.52188" y="765.09216" id="text3001"><tspan id="tspan3003" x="375.52188" y="765.09216">Nam June Paik</tspan><tspan x="375.52188" y="777.59216" id="tspan4306">Channel 6</tspan></text>
    <text xml:space="preserve" style="font-size:10px;font-style:normal;font-variant:normal;font-weight:normal;font-stretch:normal;text-align:start;line-height:125%;letter-spacing:0px;word-spacing:0px;text-anchor:start;fill:#000000;fill-opacity:1;stroke:none;font-family:Univers Else;-inkscape-font-specification:Univers Else" x="210.18881" y="533.78857" id="text3036"><tspan x="210.18881" y="533.78857" id="tspan3040">Belgacom</tspan><tspan x="210.18881" y="546.28857" id="tspan4314">b-box2</tspan><tspan x="210.18881" y="558.78857" id="tspan4316">(DSL)</tspan></text>
    <text xml:space="preserve" style="font-size:10px;font-style:normal;font-variant:normal;font-weight:normal;font-stretch:normal;text-align:start;line-height:125%;letter-spacing:0px;word-spacing:0px;text-anchor:start;fill:#000000;fill-opacity:1;stroke:none;font-family:Univers Else;-inkscape-font-specification:Univers Else" x="263.5589" y="622.20282" id="text3050"><tspan id="tspan3052" x="263.5589" y="622.20282">192.168.1.1</tspan></text>
    <image y="520.43933" x="257.81845" id="image3062" height="91.798988" width="139.61824"/>
    <image y="730.76001" x="190.8268" id="image3073" height="15.964759" width="147.91838"/>
    <text xml:space="preserve" style="font-size:10px;font-style:normal;font-variant:normal;font-weight:normal;font-stretch:normal;text-align:start;line-height:125%;letter-spacing:0px;word-spacing:0px;text-anchor:start;fill:#000000;fill-opacity:1;stroke:none;font-family:Univers Else;-inkscape-font-specification:Univers Else" x="243.77461" y="678.57892" id="text3032"><tspan id="tspan3034" x="243.77461" y="678.57892">3COM 24 port switch</tspan></text>
    <text xml:space="preserve" style="font-size:10px;font-style:normal;font-variant:normal;font-weight:normal;font-stretch:normal;text-align:start;line-height:125%;letter-spacing:0px;word-spacing:0px;text-anchor:start;fill:#000000;fill-opacity:1;stroke:none;font-family:Univers Else;-inkscape-font-specification:Univers Else" x="364.41422" y="492.7886" id="text3096"><tspan id="tspan3098" x="364.41422" y="492.7886">telephone wire</tspan></text>
    <g id="g3897" transform="matrix(0.35319531,-0.3531953,0.3531953,0.35319531,83.115813,721.76726)">
      <path transform="translate(225,-23)" d="m 127,421.36218 c 0,19.32997 -15.67003,35 -35,35 -19.329966,0 -35,-15.67003 -35,-35 0,0 0,0 0,0" id="path3102" style="color:#000000;fill:none;stroke:#000000;stroke-width:1.25;stroke-linecap:butt;stroke-linejoin:miter;stroke-miterlimit:4;stroke-opacity:1;stroke-dasharray:none;stroke-dashoffset:0;marker:none;visibility:visible;display:inline;overflow:visible;enable-background:accumulate"/>
      <path transform="matrix(1.3633618,0,0,1.3633618,190.85306,-176.13277)" d="m 127,421.36218 c 0,19.32997 -15.67003,35 -35,35 -19.329966,0 -35,-15.67003 -35,-35 0,0 0,0 0,0" id="path3102-8" style="color:#000000;fill:none;stroke:#000000;stroke-width:0.87893069;stroke-linecap:butt;stroke-linejoin:miter;stroke-miterlimit:4;stroke-opacity:1;stroke-dasharray:none;stroke-dashoffset:0;marker:none;visibility:visible;display:inline;overflow:visible;enable-background:accumulate"/>
      <path transform="matrix(1.7512132,0,0,1.7512132,154.59592,-339.53283)" d="m 127,421.36218 c 0,19.32997 -15.67003,35 -35,35 -19.329966,0 -35,-15.67003 -35,-35 0,0 0,0 0,0" id="path3102-7" style="color:#000000;fill:none;stroke:#000000;stroke-width:0.71379089;stroke-linecap:butt;stroke-linejoin:miter;stroke-miterlimit:4;stroke-opacity:1;stroke-dasharray:none;stroke-dashoffset:0;marker:none;visibility:visible;display:inline;overflow:visible;enable-background:accumulate"/>
    </g>
    <text xml:space="preserve" style="font-size:10px;font-style:normal;font-variant:normal;font-weight:normal;font-stretch:normal;text-align:start;line-height:125%;letter-spacing:0px;word-spacing:0px;text-anchor:start;fill:#000000;fill-opacity:1;stroke:none;font-family:Univers Else;-inkscape-font-specification:Univers Else" x="273.74518" y="724.00891" id="text3902"><tspan id="tspan3904" x="273.74518" y="724.00891">192.168.1.3</tspan></text>
    <text xml:space="preserve" style="font-size:10px;font-style:normal;font-variant:normal;font-weight:normal;font-stretch:normal;text-align:start;line-height:125%;letter-spacing:0px;word-spacing:0px;text-anchor:start;fill:#000000;fill-opacity:1;stroke:none;font-family:Univers Else;-inkscape-font-specification:Univers Else" x="45.328426" y="101.92106" id="text3930"><tspan id="tspan3932" x="45.328426" y="101.92106"/></text>
    <g id="g3952" transform="translate(205.41421,204.92641)">
      <text id="text3942" y="277.36218" x="33.5" style="font-size:10px;font-style:normal;font-variant:normal;font-weight:normal;font-stretch:normal;text-align:start;line-height:125%;letter-spacing:0px;word-spacing:0px;text-anchor:start;fill:#000000;fill-opacity:1;stroke:none;font-family:Univers Else;-inkscape-font-specification:Univers Else" xml:space="preserve"><tspan y="277.36218" x="33.5" id="tspan3944">€</tspan></text>
      <rect y="254.36218" x="23.5" height="40.5" width="27" id="rect3946" style="color:#000000;fill:none;stroke:#000000;stroke-width:1.25;stroke-linecap:butt;stroke-linejoin:miter;stroke-miterlimit:4;stroke-opacity:1;stroke-dasharray:none;stroke-dashoffset:0;marker:none;visibility:visible;display:inline;overflow:visible;enable-background:accumulate"/>
    </g>
    <text xml:space="preserve" style="font-size:10px;font-style:normal;font-variant:normal;font-weight:normal;font-stretch:normal;text-align:start;line-height:125%;letter-spacing:0px;word-spacing:0px;text-anchor:start;fill:#000000;fill-opacity:1;stroke:none;font-family:Univers Else;-inkscape-font-specification:Univers Else" x="17.5" y="1022.3622" id="text4000"><tspan id="tspan4002" x="17.5" y="1022.3622">Image sources:</tspan><tspan x="17.5" y="1034.8622" id="tspan4004">Handshake: http://openclipart.org/detail/171496/handshake-02-by-solvera-171496</tspan></text>
    <text xml:space="preserve" style="font-size:10px;font-style:normal;font-variant:normal;font-weight:normal;font-stretch:normal;text-align:start;line-height:125%;letter-spacing:0px;word-spacing:0px;text-anchor:start;fill:#000000;fill-opacity:1;stroke:none;font-family:Univers Else;-inkscape-font-specification:Univers Else" x="271.84317" y="512.46484" id="text4142"><tspan id="tspan4144" x="271.84317" y="512.46484">109.134.193.109</tspan></text>
    <text xml:space="preserve" style="font-size:10px;font-style:normal;font-variant:normal;font-weight:normal;font-stretch:normal;text-align:start;line-height:125%;letter-spacing:0px;word-spacing:0px;text-anchor:start;fill:#000000;fill-opacity:1;stroke:none;font-family:Univers Else;-inkscape-font-specification:Univers Else" x="274.29141" y="500.44424" id="text4146"><tspan id="tspan4148" x="274.29141" y="500.44424">Public IP address</tspan></text>
    <text xml:space="preserve" style="font-size:10px;font-style:normal;font-variant:normal;font-weight:normal;font-stretch:normal;text-align:start;line-height:125%;letter-spacing:0px;word-spacing:0px;text-anchor:start;fill:#000000;fill-opacity:1;stroke:none;font-family:Univers Else;-inkscape-font-specification:Univers Else" x="188.4386" y="444.72852" id="text4150"><tspan id="tspan4152" x="188.4386" y="444.72852">ISP: Belgacom Skynet</tspan></text>
    <g id="g3897-3" transform="matrix(0.35319531,-0.3531953,0.3531953,0.35319531,140.92775,576.57719)">
      <path transform="translate(225,-23)" d="m 127,421.36218 c 0,19.32997 -15.67003,35 -35,35 -19.329966,0 -35,-15.67003 -35,-35 0,0 0,0 0,0" id="path3102-6" style="color:#000000;fill:none;stroke:#000000;stroke-width:1.25;stroke-linecap:butt;stroke-linejoin:miter;stroke-miterlimit:4;stroke-opacity:1;stroke-dasharray:none;stroke-dashoffset:0;marker:none;visibility:visible;display:inline;overflow:visible;enable-background:accumulate"/>
      <path transform="matrix(1.3633618,0,0,1.3633618,190.85306,-176.13277)" d="m 127,421.36218 c 0,19.32997 -15.67003,35 -35,35 -19.329966,0 -35,-15.67003 -35,-35 0,0 0,0 0,0" id="path3102-8-7" style="color:#000000;fill:none;stroke:#000000;stroke-width:0.87893069;stroke-linecap:butt;stroke-linejoin:miter;stroke-miterlimit:4;stroke-opacity:1;stroke-dasharray:none;stroke-dashoffset:0;marker:none;visibility:visible;display:inline;overflow:visible;enable-background:accumulate"/>
      <path transform="matrix(1.7512132,0,0,1.7512132,154.59592,-339.53283)" d="m 127,421.36218 c 0,19.32997 -15.67003,35 -35,35 -19.329966,0 -35,-15.67003 -35,-35 0,0 0,0 0,0" id="path3102-7-6" style="color:#000000;fill:none;stroke:#000000;stroke-width:0.71379089;stroke-linecap:butt;stroke-linejoin:miter;stroke-miterlimit:4;stroke-opacity:1;stroke-dasharray:none;stroke-dashoffset:0;marker:none;visibility:visible;display:inline;overflow:visible;enable-background:accumulate"/>
    </g>
    <text xml:space="preserve" style="font-size:10px;font-style:normal;font-variant:normal;font-weight:normal;font-stretch:normal;text-align:start;line-height:125%;letter-spacing:0px;word-spacing:0px;text-anchor:start;fill:#000000;fill-opacity:1;stroke:none;font-family:Univers Else;-inkscape-font-specification:Univers Else" x="430.14423" y="616.61786" id="text4181"><tspan id="tspan4183" x="430.14423" y="616.61786">variable</tspan><tspan x="430.14423" y="629.11786" id="tspan4308">Channel 1 (2.4 GHz)</tspan><tspan x="430.14423" y="641.61786" id="tspan4310">WPA2</tspan></text>
    <text xml:space="preserve" style="font-size:10px;font-style:normal;font-variant:normal;font-weight:normal;font-stretch:normal;text-align:start;line-height:125%;letter-spacing:0px;word-spacing:0px;text-anchor:start;fill:#000000;fill-opacity:1;stroke:none;font-family:Univers Else;-inkscape-font-specification:Univers Else" x="106.03808" y="734.43982" id="text4209"><tspan id="tspan4211" x="106.03808" y="734.43982">LinkSYS/Cisco</tspan><tspan x="106.03808" y="746.93982" id="tspan4312">WRT320N</tspan></text>
    <text xml:space="preserve" style="font-size:10px;font-style:normal;font-variant:normal;font-weight:normal;font-stretch:normal;text-align:start;line-height:125%;letter-spacing:0px;word-spacing:0px;text-anchor:start;fill:#000000;fill-opacity:1;stroke:none;font-family:Univers Else;-inkscape-font-specification:Univers Else" x="126.68629" y="298.06067" id="text4229"><tspan id="tspan4231" x="126.68629" y="298.06067">The</tspan><tspan x="126.68629" y="310.5607" id="tspan4233">Internet</tspan></text>
    <text xml:space="preserve" style="font-size:10px;font-style:normal;font-variant:normal;font-weight:normal;font-stretch:normal;text-align:start;line-height:125%;letter-spacing:0px;word-spacing:0px;text-anchor:start;fill:#000000;fill-opacity:1;stroke:none;font-family:Univers Else;-inkscape-font-specification:Univers Else" x="121.51472" y="571.71753" id="text4235"><tspan id="tspan4237" x="121.51472" y="571.71753">Rue Gallait</tspan></text>
    <path style="fill:none;stroke:#000000;stroke-width:1.18090153px;stroke-linecap:butt;stroke-linejoin:miter;stroke-opacity:1" d="m 127.93692,137.28326 c -1.57453,0.39364 -4.32997,2.75544 -4.7236,1.1809 -0.39363,-1.57453 5.87124,-0.0333 4.7236,-1.1809 -9.44721,-9.44722 -3.30652,1.88944 -7.08541,0 -0.49791,-0.24896 -0.68298,-0.93195 -1.1809,-1.18091 -0.70415,-0.35207 -1.65764,0.35208 -2.3618,0 -0.49792,-0.24895 -0.68299,-0.93194 -1.1809,-1.1809 -0.70415,-0.35207 -1.65765,0.35208 -2.36181,0 -0.49791,-0.24895 -0.68298,-0.93194 -1.1809,-1.1809 -0.35207,-0.17604 -0.78727,0 -1.1809,0 -0.78727,0 -1.59804,0.19094 -2.3618,0 -1.24341,-0.31085 -2.13923,-1.64873 -3.54271,-1.1809 -1.67004,0.55669 -3.14907,1.57454 -4.7236,2.3618 -2.687685,1.34386 -5.199297,2.2088 -7.085409,4.72361 -0.528111,0.70416 -0.72805,1.60705 -1.180902,2.3618 -0.730211,1.21702 -1.727092,2.27327 -2.361803,3.54271 -0.556677,1.11336 -0.624213,2.42934 -1.180902,3.5427 -1.870985,3.74197 -2.949054,2.9299 -3.542705,7.08541 -0.22267,1.55872 0.222671,3.1649 0,4.72361 -0.176037,1.23227 -0.976263,2.31486 -1.180901,3.5427 -0.19414,1.16484 0,2.36181 0,3.54271 0,0.78727 -0.154391,1.58982 0,2.3618 0.244128,1.22062 0.936785,2.3221 1.180901,3.54271 0.46772,2.33857 -0.875,2.66771 1.180902,4.7236 0.622394,0.6224 1.629443,0.69266 2.361803,1.1809 0.463185,0.3088 0.787272,0.78728 1.180902,1.18091 1.351128,1.35112 1.397916,1.64687 3.542705,2.3618 0.373436,0.12448 0.807465,-0.12448 1.180901,0 4.070816,1.35694 0.874765,1.1809 3.542705,1.1809 0.39363,0 0.787272,0 1.180901,0 0.39363,0 1.180902,-0.39363 1.180902,0 0,0.39364 -0.828828,-0.17604 -1.180902,0 -0.497915,0.24896 -0.682986,0.93194 -1.180901,1.1809 -0.352074,0.17604 -0.807465,-0.12448 -1.180902,0 -1.670043,0.55669 -3.149075,1.57454 -4.723606,2.3618 -5.398751,2.69939 1.220603,-0.73236 -5.904508,3.54271 -3.679323,2.2076 -1.551894,0.0606 -5.904508,3.5427 -1.738783,1.39104 -3.149075,3.14908 -4.723606,4.72361 -1.574532,1.57454 -3.149075,3.14908 -4.723607,4.72361 -0.39363,0.39364 -0.872107,0.71771 -1.180901,1.1809 -0.501706,0.75255 -3.35121,6.31943 -3.542705,7.08541 -0.19094,0.76376 -0.248958,1.61494 0,2.3618 0.176037,0.52812 1.004865,0.65279 1.180902,1.1809 0.248957,0.74688 -0.248958,1.61494 0,2.36181 0.176037,0.52812 0.787271,0.78727 1.180901,1.1809 0.39363,0.39364 0.652791,1.00486 1.180902,1.1809 0.746873,0.24896 1.574531,0 2.361803,0 0.787272,0 1.574532,0 2.361803,0 0.988875,0 5.006468,0.22451 5.904508,0 0.85391,-0.21347 1.629444,-0.69266 2.361803,-1.1809 0.926382,-0.61758 1.365985,-1.86389 2.361803,-2.36181 0.352074,-0.17603 0.902564,0.27834 1.180902,0 0.278339,-0.27833 0.39363,-1.1809 0,-1.1809 -0.556677,0 -0.787272,0.78727 -1.180902,1.1809 -1.433319,1.43334 -3.015928,2.61649 -3.542704,4.72361 -0.19094,0.76376 0.19094,1.59804 0,2.3618 -0.213472,0.85391 -1.008278,1.49871 -1.180902,2.36181 -0.231598,1.15797 0,2.3618 0,3.5427 0,1.96818 -0.385989,3.97456 0,5.90451 0.172624,0.8631 0.787272,1.57454 1.180902,2.3618 0.39363,0.78727 0.65279,1.65766 1.180901,2.36181 0.668024,0.89069 1.693791,1.4711 2.361803,2.3618 0.528111,0.70416 0.476754,1.83369 1.180902,2.3618 0.995819,0.74688 2.386956,0.7186 3.542705,1.1809 0.817243,0.3269 1.507893,0.96743 2.361803,1.18091 0.76376,0.19094 1.574531,0 2.361803,0 1.180902,0 2.361803,0 3.542705,0 1.180901,0 2.377873,0.19414 3.542703,0 3.35705,-0.55952 3.15107,-1.26043 5.90451,-2.36181 2.31149,-0.9246 4.77391,-1.4372 7.08541,-2.3618 0.81724,-0.3269 1.50789,-0.96742 2.3618,-1.1809 0.76376,-0.19094 1.57453,0 2.3618,0 0.78727,0 1.57453,0 2.36181,0 0.78727,0 1.61494,-0.24896 2.3618,0 1.05623,0.35207 1.43543,1.74422 2.3618,2.3618 0.73236,0.48824 1.73941,0.55852 2.3618,1.1809 0.6224,0.6224 0.78728,1.57455 1.18091,2.36181 0.78727,1.57454 1.57453,3.14907 2.3618,4.7236 0.39363,0.78727 0.65279,1.65766 1.1809,2.36181 0.66667,0.88888 5.01562,5.23784 5.90451,5.9045 0.70416,0.52813 1.57453,0.78727 2.3618,1.1809 0.78727,0.39365 1.49871,1.00829 2.36181,1.18091 1.92994,0.38599 3.97456,-0.38599 5.9045,0 1.22061,0.24412 2.3221,0.93678 3.54271,1.1809 0.77198,0.1544 1.57453,0 2.3618,0 3.14908,0 6.29814,0 9.44721,0 1.1809,0 2.39707,-0.28641 3.54271,0 1.50892,0.37723 3.82148,2.18951 4.7236,3.5427 0.48825,0.73237 0.69266,1.62945 1.18091,2.36181 0.30879,0.46318 0.8721,0.71771 1.1809,1.1809 1.83858,2.75787 2.88502,6.68934 4.7236,9.44721 0.3088,0.46319 0.87211,0.71772 1.18091,1.1809 0.48824,0.73237 0.5585,1.73942 1.1809,2.3618 2.98284,2.98286 1.36133,0.45378 3.5427,1.18091 2.38852,0.79617 2.08753,1.83992 4.72361,1.1809 0.85391,-0.21347 1.4987,-1.00828 2.3618,-1.1809 1.15797,-0.23159 2.38474,0.23159 3.54271,0 1.72619,-0.34524 2.99741,-2.01657 4.7236,-2.36181 1.15797,-0.23158 2.38474,0.2316 3.54271,0 3.09623,-0.61924 1.45454,-1.99816 4.7236,-1.1809 0.85391,0.21348 1.57454,0.78727 2.36181,1.1809 0.78727,0.39364 1.57453,0.78727 2.3618,1.1809 0.78727,0.39365 1.65766,0.6528 2.3618,1.18091 0.8907,0.66802 1.57453,1.57454 2.36181,2.3618 1.57453,1.57454 3.33257,2.98482 4.7236,4.72361 0.88661,1.10826 1.35823,2.53914 2.36181,3.5427 0.62239,0.62239 1.65765,0.65279 2.3618,1.1809 2.02404,1.51804 2.12504,3.02299 4.72361,3.54271 3.86831,0.77366 3.39128,-0.44207 7.0854,-1.1809 0.77198,-0.1544 1.63085,0.29239 2.36181,0 1.31775,-0.5271 2.32569,-1.6316 3.5427,-2.36181 2.17199,-1.30318 3.36976,-1.51689 5.90451,-2.3618 1.1809,-0.39363 2.3221,-0.93677 3.54271,-1.1809 0.77197,-0.15439 1.57453,0 2.3618,0 0.78727,0 1.58982,-0.15439 2.3618,0 3.83245,0.76649 3.34808,0.98627 5.90451,3.5427 0.78727,0.78727 1.57453,1.57455 2.3618,2.36181 3.14908,3.14907 6.29814,6.29815 9.44722,9.44721 2.41931,2.41931 2.22536,2.92952 5.9045,3.5427 1.16483,0.19414 2.36181,0 3.54271,0 1.57453,0 3.20965,0.43257 4.7236,0 1.36467,-0.3899 2.31044,-1.65764 3.54271,-2.3618 1.52844,-0.8734 3.19516,-1.48841 4.72361,-2.3618 5.82919,-3.33097 1.50746,-1.68023 8.26631,-5.90451 1.4928,-0.933 3.19516,-1.48841 4.7236,-2.3618 6.4098,-3.66274 0.59005,-1.37759 7.08541,-3.54271 1.1809,-0.39363 2.29793,-1.1809 3.54271,-1.1809 0.0444,0 6.78611,2.27629 7.08541,2.3618 1.56055,0.44588 3.31445,0.37567 4.7236,1.1809 1.45001,0.82858 2.25974,2.47357 3.54271,3.54271 1.09031,0.9086 2.3618,1.57454 3.5427,2.3618 1.1809,0.78727 2.31044,1.65766 3.54271,2.3618 1.52844,0.8734 3.19516,1.48841 4.7236,2.36181 1.23227,0.70416 2.17805,1.9719 3.54271,2.3618 1.51395,0.43257 3.14907,0 4.72361,0 1.57453,0 3.14907,0 4.7236,0 1.57453,0 3.1649,0.22267 4.72361,0 1.23227,-0.17604 2.34581,-0.83893 3.5427,-1.1809 2.7817,-0.79477 6.66552,-1.56703 9.44722,-2.3618 3.88846,-1.11098 7.63474,-2.95813 11.80901,-2.36181 1.05941,0.15135 6.9204,1.68886 8.26631,2.36181 1.26944,0.63472 2.36181,1.57454 3.54271,2.3618 2.3618,1.57454 4.62086,3.3153 7.08541,4.72361 4.25709,2.43262 8.28495,3.54737 12.98991,4.7236 1.57454,0.39364 3.11314,0.9796 4.72361,1.1809 1.56238,0.1953 3.14908,0 4.72361,0 4.84626,0 6.20611,0.47736 10.62811,-1.1809 1.6483,-0.61811 3.05356,-1.80511 4.72361,-2.3618 1.90414,-0.63471 3.94515,-0.74549 5.90451,-1.1809 1.58434,-0.35208 3.14907,-0.78726 4.7236,-1.1809 1.96817,-0.39363 3.94516,-0.7455 5.90451,-1.18091 1.58434,-0.35207 3.11314,-0.97959 4.72361,-1.1809 4.54697,-0.56837 5.05108,0.20399 9.44721,1.1809 1.8365,0.40811 8.53359,1.57637 10.62811,2.36181 1.64831,0.61812 3.05357,1.80512 4.72361,2.3618 1.90414,0.63472 3.94516,0.74549 5.90451,1.1809 3.22766,0.71727 7.39026,2.03803 10.62811,2.36181 1.95841,0.19584 3.93634,0 5.90451,0 1.96817,0 3.9461,0.19584 5.90451,0 1.99719,-0.19972 3.93633,-0.78726 5.90451,-1.18091 1.96817,-0.39363 3.96808,-0.65277 5.9045,-1.1809 4.76479,-1.29949 8.46217,-2.9125 12.98992,-4.7236 1.96817,-0.78726 3.87413,-1.75269 5.90451,-2.36181 1.92249,-0.57675 4.00036,-0.54618 5.90451,-1.1809 1.67004,-0.55668 3.05356,-1.80511 4.7236,-2.3618 1.90415,-0.63471 3.94516,-0.74549 5.90451,-1.1809 1.58435,-0.35208 3.11314,-0.9796 4.72361,-1.18091 5.81065,-0.72632 3.74852,0.36682 9.44721,1.18091 1.16903,0.167 2.37367,-0.16701 3.5427,0 1.60669,0.22953 3.11692,0.95138 4.72361,1.1809 1.16903,0.167 2.37788,-0.19414 3.54271,0 5.57063,0.92843 1.62221,2.13006 8.26631,1.1809 1.23227,-0.17604 2.34582,-0.83894 3.5427,-1.1809 0.68895,-0.19685 7.20454,-1.65395 8.26631,-2.36181 1.38957,-0.92637 2.18374,-2.572 3.54271,-3.5427 1.43248,-1.0232 3.29112,-1.3386 4.7236,-2.3618 1.35897,-0.97069 2.36181,-2.36181 3.54271,-3.54271 1.1809,-1.1809 2.3618,-2.3618 3.5427,-3.5427 2.36181,-2.36181 4.94714,-4.51948 7.08541,-7.08541 0.9086,-1.0903 1.4752,-2.43444 2.36181,-3.54271 0.69551,-0.86939 1.57453,-1.57453 2.3618,-2.3618 0.78727,-0.78726 1.36598,-1.86389 2.3618,-2.3618 0.70416,-0.35208 1.59805,0.19094 2.36181,0 0.85391,-0.21347 1.52677,-0.90257 2.3618,-1.1809 0.31976,-0.10664 5.77098,-0.0445 5.90451,0 0.52811,0.17603 0.62422,1.1809 1.1809,1.1809 0.88019,0 1.50789,-0.96742 2.3618,-1.1809 0.76376,-0.19094 1.59804,0.19094 2.3618,0 0.85391,-0.21348 1.57454,-0.78726 2.36181,-1.18091 0.78727,-0.39363 1.65765,-0.65278 2.3618,-1.1809 0.8907,-0.66801 1.57453,-1.57453 2.3618,-2.3618 1.18091,-1.1809 2.47357,-2.25974 3.54271,-3.54271 0.9086,-1.0903 1.4532,-2.45239 2.3618,-3.5427 1.06914,-1.28297 2.47357,-2.25974 3.54271,-3.54271 0.90859,-1.0903 1.53687,-2.38779 2.3618,-3.5427 1.8104,-2.53457 4.31421,-5.48328 5.90451,-8.26631 0.87339,-1.52844 1.66835,-3.10556 2.3618,-4.72361 1.46533,-3.41911 2.16091,-7.17362 3.54271,-10.62811 0.32689,-0.81723 0.96741,-1.5079 1.1809,-2.36181 0.24007,-0.9603 0,-5.84919 0,-7.0854 0,-0.39363 -0.12448,-0.80747 0,-1.18091 0.27834,-0.83501 0.90256,-1.52677 1.1809,-2.3618 0.12448,-0.37344 0,-0.78726 0,-1.1809 0,-0.78726 0,-1.57453 0,-2.3618 0,-0.78726 0,-5.70813 0,-5.90451 0,-5.51087 0,-11.02175 0,-16.53262 0,-1.57454 0,-3.14907 0,-4.72361 0,-1.1809 0.167,-2.37367 0,-3.54271 -0.39292,-2.75041 -1.90229,-8.16748 -3.54271,-10.62811 -1.79198,-2.68797 -4.36247,-2.3618 -7.08541,-2.3618 -0.39363,0 -0.80746,-0.12448 -1.1809,0 -1.67004,0.55669 -3.01578,1.93485 -4.7236,2.3618 -1.57928,0.39482 -4.71719,0.006 -5.90451,-1.1809 -0.6224,-0.62238 -0.65279,-1.65764 -1.1809,-2.3618 -6.9197,-9.22627 2.10207,5.38505 -3.54271,-5.90451 -0.63471,-1.26944 -1.65764,-2.31044 -2.3618,-3.54271 -0.8734,-1.52844 -1.57453,-3.14906 -2.3618,-4.7236 -1.57454,-3.14907 -3.14908,-6.29814 -4.72361,-9.44722 -0.78727,-1.57453 -1.57453,-3.14906 -2.3618,-4.7236 -0.78728,-1.57453 -1.3386,-3.29113 -2.36181,-4.72361 -2.06649,-2.89308 -4.26055,-4.02126 -7.08541,-5.90451 -1.1809,-0.78726 -2.19626,-1.91299 -3.5427,-2.3618 -1.1203,-0.37344 -2.37788,0.19414 -3.54271,0 -1.22784,-0.20464 -2.29792,-1.1809 -3.5427,-1.1809 -1.24478,0 -2.31043,1.00486 -3.54271,1.1809 -1.5587,0.22267 -3.16489,-0.22267 -4.7236,0 -1.23227,0.17604 -2.34582,0.83894 -3.54271,1.1809 -1.56055,0.44587 -3.11692,0.95138 -4.7236,1.1809 -1.16904,0.16701 -2.36181,0 -3.54271,0 -3.84484,0 -4.90869,0.49792 -8.26631,-1.1809 -1.26943,-0.63471 -2.3618,-1.57453 -3.5427,-2.3618 -2.01157,-1.34105 -6.80156,-4.43976 -8.26631,-5.90451 -1.39171,-1.39171 -2.151,-3.3319 -3.54271,-4.72361 -1.3917,-1.3917 -3.14907,-2.3618 -4.72361,-3.5427 -1.57453,-1.57454 -3.14907,-3.14907 -4.7236,-4.72361 -6.11531,-6.11531 -2.94223,-3.38757 -9.44721,-8.26631 -1.57454,-1.1809 -2.92507,-2.74335 -4.72361,-3.54271 -1.83415,-0.815172 -3.94516,-0.745487 -5.90451,-1.180897 -7.46214,-1.658246 -2.09514,-1.180902 -10.62811,-1.180902 -1.96818,0 -3.98321,-0.426955 -5.90451,0 -1.71846,0.38188 -3.05356,1.805129 -4.72361,2.361799 -1.90414,0.63473 -4.00036,0.54619 -5.90451,1.18091 -1.67004,0.55668 -3.11494,1.64685 -4.7236,2.3618 -1.93708,0.86092 -3.96743,1.50088 -5.90451,2.3618 -4.882,2.16978 -7.34979,4.34844 -12.98992,3.54271 -1.23227,-0.17604 -2.34581,-0.83894 -3.5427,-1.18091 -1.7657,-0.50448 -6.37871,-1.418 -8.26631,-2.3618 -1.26944,-0.63471 -2.36181,-1.57453 -3.54271,-2.3618 -1.1809,-0.78726 -2.45239,-1.45321 -3.5427,-2.3618 -1.28297,-1.06913 -2.25974,-2.473568 -3.54271,-3.542709 -2.18061,-1.817183 -4.7236,-3.149063 -7.08541,-4.723604 -1.1809,-0.787268 -2.23818,-1.802726 -3.5427,-2.361803 -1.49176,-0.639328 -3.11692,-0.951376 -4.72361,-1.180902 -1.16903,-0.167004 -2.3618,0 -3.5427,0 -1.1809,0 -2.37788,-0.194139 -3.54271,0 -1.22784,0.204641 -2.3618,0.787268 -3.5427,1.180902 -1.1809,0.393633 -2.36181,0.787268 -3.54271,1.180902 -1.1809,0.393633 -2.47531,0.540467 -3.5427,1.180901 -0.9547,0.572821 -1.4071,1.788981 -2.3618,2.361801 -1.0674,0.640438 -2.38696,0.718602 -3.54271,1.180901 -0.81724,0.326898 -1.49871,1.00829 -2.3618,1.180902 -0.4214,0.08432 -7.45362,0.162539 -8.26631,0 -1.68983,-0.337962 -4.32998,-1.417082 -5.90451,-2.361803 -1.21702,-0.730199 -2.27327,-1.727085 -3.54271,-2.361801 -1.11336,-0.556682 -2.42934,-0.624219 -3.5427,-1.180901 -1.26944,-0.634716 -2.27327,-1.727088 -3.54271,-2.361804 -1.11336,-0.556681 -2.3618,-0.787268 -3.5427,-1.180901 -1.1809,-0.393634 -2.31486,-0.976261 -3.54271,-1.180902 -1.16483,-0.194139 -2.3618,0 -3.5427,0 -4.63189,0 -3.13072,-0.286411 -8.26631,1.180902 -4.27799,1.222285 -3.2038,0.954962 -7.08541,3.542705 -1.1809,0.787268 -2.45239,1.45321 -3.54271,2.3618 -1.28296,1.069141 -2.25973,2.473576 -3.5427,3.542705 -5.07645,4.230379 -1.75947,0.879736 -7.08541,3.542709 -1.26943,0.63472 -2.19626,1.91299 -3.5427,2.3618 -1.1203,0.37344 -2.37788,-0.19414 -3.54271,0 -1.22784,0.20464 -2.29793,1.1809 -3.5427,1.1809 -1.24478,0 -2.31487,-0.97626 -3.54271,-1.1809 -1.16483,-0.19414 -2.42241,0.37344 -3.5427,0 -1.34644,-0.44881 -2.2382,-1.80273 -3.54271,-2.3618 -1.49176,-0.63933 -3.20395,-0.61103 -4.7236,-1.18091 -13.15113,-6.575555 3.41565,1.28087 -9.44722,-3.542701 -1.6483,-0.618107 -3.0753,-1.743683 -4.7236,-2.361803 -4.16743,-1.56278 -5.12212,-1.180899 -9.44722,-1.180899 -1.96817,0 -3.94838,-0.217347 -5.9045,0 -1.61307,0.17923 -3.14908,0.787269 -4.72361,1.180899 -5.30201,1.325503 -10.66631,2.976132 -15.35172,5.904504 -1.66901,1.04313 -3.0546,2.49958 -4.72361,3.54271 -2.9856,1.866 -6.39033,2.97682 -9.44721,4.7236 -1.23227,0.70416 -2.2382,1.80273 -3.54271,2.36181 -1.49176,0.63933 -3.14907,0.78727 -4.7236,1.1809 -1.57453,0.39364 -3.11692,0.95138 -4.72361,1.1809 -1.16903,0.167 -2.3618,0 -3.5427,0 -1.57453,0 -3.16123,0.1953 -4.72361,0 -1.61047,-0.20131 -3.14907,-0.78726 -4.72361,-1.1809 -3.14907,-0.78726 -6.27852,-1.65764 -9.44721,-2.3618 -1.95935,-0.43541 -3.94515,-0.74549 -5.90451,-1.18091 -1.58434,-0.35207 -3.11314,-0.97959 -4.7236,-1.1809 -1.56238,-0.19529 -3.1587,0.17388 -4.72361,0 -1.99487,-0.22164 -3.89736,-1.1809 -5.90451,-1.1809 -1.62299,0 -3.14907,0.78727 -4.7236,1.1809 -1.57453,0.39365 -3.14908,0.78727 -4.72361,1.1809 -2.39701,0.59925 -5.89452,1.34532 -8.26631,2.36181 -14.49223,6.21096 3.59339,-1.20625 -8.26631,4.7236 -1.11337,0.55669 -2.42934,0.62423 -3.54271,1.18091 -4.08039,2.04019 -2.63306,2.80065 -7.08541,3.5427 -1.16483,0.19414 -2.3618,0 -3.5427,0 -1.1809,0 -2.37788,0.19414 -3.54271,0 -1.22784,-0.20464 -2.31486,-0.97626 -3.5427,-1.1809 -1.16483,-0.19414 -2.37788,0.19414 -3.5427,0 -3.29967,-0.54995 -7.32846,-2.99276 -10.62812,-3.54271 -1.16483,-0.19414 -2.3618,0 -3.5427,0 -1.57454,0 -3.14908,0 -4.72361,0 -1.1809,0 -2.37788,-0.19414 -3.54271,0 -1.22784,0.20464 -2.34581,0.83894 -3.5427,1.18091 -1.56055,0.44587 -3.23184,0.54157 -4.72361,1.1809 -1.3045,0.55907 -2.32569,1.6316 -3.5427,2.3618 -0.75476,0.45286 -1.60704,0.72805 -2.3618,1.1809 -1.21702,0.73021 -2.27328,1.72709 -3.54271,2.36181 -1.11336,0.55668 -2.38695,0.7186 -3.5427,1.1809 -0.16325,0.0653 -4.66791,2.35066 -4.72361,2.3618 -1.92995,0.38599 -3.93633,0 -5.90451,0 -1.96817,0 -3.97456,0.38599 -5.90451,0 -0.86309,-0.17261 -1.50789,-0.96742 -2.3618,-1.1809 -0.4555,-0.11384 -6.62991,-0.11384 -7.08541,0 -0.85391,0.21348 -1.57453,0.78727 -2.3618,1.1809 -0.78727,0.39364 -1.62944,0.69266 -2.3618,1.1809 -0.46319,0.3088 -0.78728,0.78728 -1.18091,1.18091 -0.78727,0.78727 -1.69377,1.47112 -2.3618,2.3618 -0.52811,0.70416 -0.78727,1.57454 -1.1809,2.3618 -1.1809,2.36181 -2.3618,4.72361 -3.54271,7.08541" id="path4245"/>
    <path style="fill:none;stroke:#000000;stroke-width:1px;stroke-linecap:butt;stroke-linejoin:miter;stroke-opacity:1" d="m 254.41421,918.78859 c 0,-3 0,-6 0,-9 0,-0.66666 0.21082,-1.36754 0,-2 -0.14907,-0.44721 -0.85093,-0.55278 -1,-1 -0.3088,-0.92641 0.3194,-4.04179 0,-5 -0.2357,-0.7071 -0.7643,-1.29289 -1,-2 -0.31623,-0.94868 0.31623,-2.05131 0,-3 -0.14907,-0.44721 -0.78918,-0.57836 -1,-1 -0.10256,-0.20513 -0.14103,-2.85897 0,-3 0.4714,-0.4714 1.40372,0.29814 2,0 0.42164,-0.21082 0.57836,-0.78918 1,-1 0.29814,-0.14907 0.70186,0.14907 1,0 0.42164,-0.21082 0.60777,-0.73851 1,-1 5.05181,-3.36787 0.0232,-0.008 3,-1 3.62529,-1.20843 0.7117,-0.47446 3,-2 1.24035,-0.8269 2.75965,-1.1731 4,-2 0.39223,-0.26149 0.66667,-0.66666 1,-1 0.66667,-0.33333 1.37983,-0.58655 2,-1 0.78446,-0.52297 1.15673,-1.57836 2,-2 0.29814,-0.14907 0.66667,0 1,0 0.33333,-0.33333 0.57836,-0.78918 1,-1 0.29814,-0.14907 0.7643,0.2357 1,0 0.2357,-0.2357 -0.2357,-0.7643 0,-1 0.2357,-0.2357 0.7643,-0.2357 1,0 0.5,0.5 -0.5,2.5 0,3 0.2357,0.2357 0.7643,-0.2357 1,0 0.4714,0.47141 -0.29814,1.40372 0,2 0.21082,0.42164 0.66667,0.66667 1,1 0,0.66667 -0.21082,1.36755 0,2 0.14907,0.44722 0.85093,0.55279 1,1 0.31623,0.94869 -0.31623,2.05132 0,3 0.2357,0.70711 0.7643,1.2929 1,2 0.3542,1.06261 -0.3542,2.93739 0,4 0.2357,0.70711 0.7643,1.2929 1,2 0.23439,0.70316 -0.27411,4.72589 0,5 1.33333,1.33334 1,-1.66666 1,1 0,0.33334 0.2357,0.7643 0,1 -0.2357,0.2357 -1,0.33334 -1,0 0,-0.33333 0.66667,0 1,0 0.33333,0 0.66667,0 1,0 2.34518,0 -0.4714,-0.2357 2,1 0.30433,0.15217 2.54964,0 3,0 4.33333,0 8.66667,0 13,0 0.33333,0 0.66667,0 1,0 0.33333,0 0.7643,-0.2357 1,0 0.2357,0.2357 0.2357,0.7643 0,1 -0.2357,0.2357 -0.7643,-0.2357 -1,0 -0.4714,0.47141 0.29814,1.40372 0,2 -0.21082,0.42164 -0.78918,0.57837 -1,1 -0.14907,0.29814 0.14907,0.70186 0,1 -0.21082,0.42164 -0.78918,0.57837 -1,1 -0.14907,0.29814 0.14907,0.70186 0,1 -0.21082,0.42164 -0.78918,0.57837 -1,1 -0.14907,0.29814 0.14907,0.70186 0,1 -0.21082,0.42164 -0.78918,0.57837 -1,1 -0.14907,0.29814 0.14907,0.70186 0,1 -0.21082,0.42164 -0.78918,0.57837 -1,1 -0.29814,0.59629 0.29814,1.40372 0,2 -0.21082,0.42164 -0.78918,0.57837 -1,1 -0.14907,0.29814 0.2357,0.7643 0,1 -0.2357,0.2357 -0.7643,0.2357 -1,0 -0.2357,-0.2357 0.2357,-0.7643 0,-1 -0.2357,-0.2357 -0.66667,0 -1,0 -0.33333,0 -0.66667,0 -1,0 -2,0 -4,0 -6,0 -0.45036,0 -2.69567,-0.15216 -3,0 -0.42164,0.21082 -0.57836,0.78918 -1,1 -0.22413,0.11207 -3.76237,0 -4,0 -0.45036,0 -2.69567,0.15217 -3,0 -0.42164,-0.21082 -0.55279,-0.85093 -1,-1 -0.51517,-0.17172 -5.94218,0 -7,0 -0.33333,0 -0.66667,0 -1,0 -0.33333,0 -0.7643,0.2357 -1,0 -0.2357,-0.2357 0.2357,-0.7643 0,-1 -0.0453,-0.0453 -4.5285,0 -5,0 -0.33333,0 -0.7643,-0.2357 -1,0 -0.2357,0.2357 0.2357,0.7643 0,1 -0.2357,0.2357 -0.73971,0.20823 -1,0 -1.47242,-1.17793 -4,-2.11438 -4,-4 0,-1.37437 2.62563,1 4,1 0.19291,0 1.51446,-1.6763 2,-2 0.62017,-0.41345 1.37983,-0.58655 2,-1 0.39223,-0.26149 0.60777,-0.73851 1,-1 0.62017,-0.41345 1.37983,-0.58655 2,-1 0.39223,-0.26149 0.60777,-0.73851 1,-1 0.62017,-0.41345 1.40372,-0.55278 2,-1 4.32529,-4.32529 -0.26491,-0.15672 4,-3 0.39223,-0.26149 0.55279,-0.85093 1,-1 0.63246,-0.21082 1.36754,0.21082 2,0 0.89443,-0.29814 1.15673,-1.57836 2,-2 0.29814,-0.14907 0.66667,0 1,0 0.33333,0 0.66667,0 1,0" id="path4255"/>
    <path style="fill:none;stroke:#000000;stroke-width:1px;stroke-linecap:butt;stroke-linejoin:miter;stroke-opacity:1" d="m 384.41421,899.78859 c -4.00754,0.4883 -1.33114,-4.66228 -2,-6 -0.21082,-0.42163 -0.78918,-0.57836 -1,-1 -0.14907,-0.29814 0,-0.66666 0,-1 -0.33333,-0.33333 -0.78918,-0.57836 -1,-1 -0.14907,-0.29814 0.2357,-0.7643 0,-1 -0.2357,-0.2357 -0.7643,0.2357 -1,0 -0.2357,-0.2357 0.14907,-0.70186 0,-1 -3.31658,-3.31658 0.4714,0.94281 -1,-2 -0.21082,-0.42163 -0.78918,-0.57836 -1,-1 -0.14907,-0.29814 0.14907,-0.70186 0,-1 -0.21082,-0.42163 -0.78918,-0.57836 -1,-1 -0.14907,-0.29814 0.14907,-0.70186 0,-1 -0.6,-1.2 -2.4,-1.8 -3,-3 -0.14907,-0.29814 0,-0.66666 0,-1 -0.33333,-0.33333 -0.78918,-0.57836 -1,-1 -0.29814,-0.59628 0.4714,-1.52859 0,-2 -0.2357,-0.2357 -0.7643,0.2357 -1,0 -0.2357,-0.2357 -0.2357,-0.7643 0,-1 0.4714,-0.4714 1.40372,0.29814 2,0 3.31658,-3.31658 -0.94281,0.47141 2,-1 0.42164,-0.21082 0.57836,-0.78918 1,-1 0.29814,-0.14907 0.70186,0.14907 1,0 0.42164,-0.21082 0.57836,-0.78918 1,-1 0.29814,-0.14907 0.70186,0.14907 1,0 0.42164,-0.21082 0.57836,-0.78918 1,-1 0.29814,-0.14907 0.70186,0.14907 1,0 0.42164,-0.21082 0.55279,-0.85093 1,-1 0.63246,-0.21082 1.36754,0.21082 2,0 0.89443,-0.29814 1.10557,-1.70186 2,-2 0.63246,-0.21082 1.36754,0.21082 2,0 0.89443,-0.29814 1.15673,-1.57836 2,-2 0.29814,-0.14907 0.70186,0.14907 1,0 1.2,-0.6 1.8,-2.4 3,-3 1.37936,-0.68968 0.89447,1.21106 2,-1 0.14907,-0.29814 -0.2357,-0.7643 0,-1 0.2357,-0.2357 0.70186,0.14907 1,0 0.42164,-0.21082 0.57836,-0.78918 1,-1 0.29814,-0.14907 0.7643,0.2357 1,0 0.2357,-0.2357 -0.2357,-0.7643 0,-1 0.2357,-0.2357 0.7643,0.2357 1,0 0.2357,-0.2357 -0.2357,-0.7643 0,-1 0.2357,-0.2357 0.7643,0.2357 1,0 0.2357,-0.2357 -0.2357,-0.7643 0,-1 0.2357,-0.2357 0.7643,-0.2357 1,0 0.0402,0.0402 0,3.63277 0,4 0,2.33334 0,4.66667 0,7 0,0.45036 -0.15217,2.69567 0,3 0.21082,0.42164 0.78918,0.57837 1,1 0.14907,0.29814 0,0.66667 0,1 0,0.33334 0,0.66667 0,1 0,2 0,4 0,6 0,0.33334 0.2357,0.7643 0,1 -0.2357,0.2357 -0.7643,-0.2357 -1,0 -0.5,0.5 0.5,2.5 0,3 -0.2357,0.2357 -0.7643,-0.2357 -1,0 -0.2357,0.2357 -0.2357,0.7643 0,1 0.2357,0.2357 0.66667,0 1,0 0.33333,0 0.70186,0.14907 1,0 0.42164,-0.21082 0.57836,-0.78918 1,-1 0.29814,-0.14907 0.66667,0 1,0 7,0 14,0 21,0 0.36724,0 3.95976,-0.0402 4,0 0.2357,0.2357 0.2357,0.7643 0,1 -0.2357,0.2357 -0.7643,-0.2357 -1,0 -0.2357,0.2357 0.2357,0.7643 0,1 -0.2357,0.2357 -0.7643,-0.2357 -1,0 -0.4714,0.47141 0.29814,1.40372 0,2 -0.21082,0.42164 -0.78918,0.57837 -1,1 -0.29814,0.59629 0.29814,1.40372 0,2 -0.21082,0.42164 -0.78918,0.57837 -1,1 -0.29814,0.59629 0.4714,1.5286 0,2 -0.2357,0.2357 -0.7643,-0.2357 -1,0 -0.30965,0.30965 0.30965,4.69036 0,5 -0.2357,0.2357 -0.7643,0.2357 -1,0 -0.2357,-0.2357 0.2357,-0.7643 0,-1 -0.2357,-0.2357 -1,0.33334 -1,0 0,-0.33333 1.33333,0 1,0 -5.66667,0 -0.33333,-0.66666 -2,1 -0.27362,0.27362 -3.45751,-0.27124 -4,0 -0.42164,0.21082 -0.57836,0.78918 -1,1 -0.44498,0.22249 -3.54261,-0.15246 -4,0 -0.44721,0.14907 -0.55279,0.85093 -1,1 -0.58508,0.19503 -5.14167,0 -6,0 -0.33333,0 -0.70186,-0.14907 -1,0 -0.42164,0.21082 -0.57836,0.78918 -1,1 -0.29814,0.14907 -0.66667,0 -1,0 -0.33333,0 -0.70186,0.14907 -1,0 -0.42164,-0.21082 -0.57836,-0.78918 -1,-1 -0.60722,-0.30361 -5.39278,0.30361 -6,0 -2.4714,-1.2357 0.34518,-1 -2,-1 -2.7883,0 -8.99399,0.015 -9,0 -0.66667,-1.66666 1.29289,-3.35008 2,-5 0.29361,-0.68509 0.66667,-1.33333 1,-2 0.33333,-0.66666 0.55279,-1.40371 1,-2 0.56569,-0.75424 1.33333,-1.33333 2,-2 0.66667,-0.66666 1.24575,-1.43431 2,-2 0.59629,-0.44721 1.47295,-0.47295 2,-1 0.52705,-0.52704 0.55279,-1.40371 1,-2 2.16265,-2.88352 1.44481,-1.29654 4,-3 0.39223,-0.26149 0.60777,-0.73851 1,-1 0.62017,-0.41345 1.37983,-0.58655 2,-1 0.23431,-0.15621 1.23668,-1.76331 2,-1 0.2357,0.2357 0.2357,0.7643 0,1 -0.2357,0.2357 -0.7643,-0.2357 -1,0 -0.2357,0.2357 0,0.66667 0,1" id="path4259"/>
    <path style="fill:none;stroke:#000000;stroke-width:1px;stroke-linecap:butt;stroke-linejoin:miter;stroke-opacity:1" d="m 337.41421,957.78859 c 0,-1.66666 0,-3.33333 0,-5 0,-0.33333 0.14907,-0.70186 0,-1 -0.21082,-0.42163 -0.78918,-0.57836 -1,-1 -0.4,-0.8 0.4,-2.2 0,-3 -0.21082,-0.42163 -0.78918,-0.57836 -1,-1 -0.14907,-0.29814 0,-0.66666 0,-1 0,-0.66666 0.21082,-1.36754 0,-2 -0.14907,-0.44721 -0.78918,-0.57836 -1,-1 -0.26853,-0.53706 0.26853,-1.46293 0,-2 -1.2357,-2.4714 -1,0.34518 -1,-2 0,-0.33333 0,-0.66666 0,-1 0,-0.33333 0.2357,-0.7643 0,-1 -0.2357,-0.2357 -0.7643,0.2357 -1,0 -0.2357,-0.2357 -0.2357,-0.7643 0,-1 0.4714,-0.4714 1.40372,0.29814 2,0 0.42164,-0.21082 0.57836,-0.78918 1,-1 0.29814,-0.14907 0.7643,0.2357 1,0 0.2357,-0.2357 -0.2357,-0.7643 0,-1 0.2357,-0.2357 0.70186,0.14907 1,0 0.42164,-0.21082 0.57836,-0.78918 1,-1 0.29814,-0.14907 0.70186,0.14907 1,0 1.2,-0.6 1.8,-2.4 3,-3 0.29814,-0.14907 0.7643,0.2357 1,0 0.2357,-0.2357 -0.14907,-0.70186 0,-1 2.08088,-4.16176 -0.069,1.06904 2,-1 0.2357,-0.2357 -0.2357,-0.7643 0,-1 2.06904,-2.06903 -0.0809,3.16176 2,-1 0.14907,-0.29814 -0.2357,-0.7643 0,-1 2.06904,-2.06903 -0.0809,3.16176 2,-1 0.14907,-0.29814 -0.14907,-0.70186 0,-1 0.42164,-0.84327 1.57836,-1.15672 2,-2 0.14907,-0.29814 -0.2357,-0.7643 0,-1 0.2357,-0.2357 0.7643,0.2357 1,0 0.2357,-0.2357 -0.2357,-0.7643 0,-1 0.2357,-0.2357 0.7643,-0.2357 1,0 0.2357,0.2357 -0.2357,0.7643 0,1 0.2357,0.2357 0.7643,-0.2357 1,0 0.5,0.5 -0.5,2.5 0,3 0.2357,0.2357 0.7643,-0.2357 1,0 0.27362,0.27362 -0.27124,3.45751 0,4 0.21082,0.42164 0.78918,0.57837 1,1 0.13325,0.2665 0,5.54761 0,6 0,0.33334 -0.14907,0.70186 0,1 0.21082,0.42164 0.85093,0.55279 1,1 0.17172,0.51517 0,5.94218 0,7 0,2.34518 -0.2357,-0.4714 1,2 0.14907,0.29814 0,0.66667 0,1 0,0.33334 0,0.66667 0,1 0,0.33334 -0.33333,1 0,1 0.4714,0 0.57836,-0.78918 1,-1 0.30433,-0.15216 2.54964,0 3,0 0.52292,0 3.73706,-0.13147 4,0 0.42164,0.21082 0.57836,0.78918 1,1 0.36163,0.18082 4.30446,0 5,0 2.34518,0 -0.4714,0.2357 2,-1 0.29814,-0.14907 0.66667,0 1,0 0.33333,0 0.66667,0 1,0 0.33333,0 1,-0.33333 1,0 0,0.66667 -1.40371,-0.29814 -2,0 -0.19142,0.0957 -3.90429,3.80858 -4,4 -0.14907,0.29814 0.2357,0.7643 0,1 -0.2357,0.2357 -0.7643,-0.2357 -1,0 -0.2357,0.2357 0.14907,0.70186 0,1 -1.18356,2.36713 -0.81644,-0.36712 -2,2 -0.29814,0.59629 0.4714,1.5286 0,2 -0.2357,0.2357 -0.7643,-0.2357 -1,0 -0.2357,0.2357 0.14907,0.70186 0,1 -0.42164,0.84328 -1.57836,1.15673 -2,2 -0.14907,0.29814 0.2357,0.7643 0,1 -0.2357,0.2357 -0.7643,-0.2357 -1,0 -0.2357,0.2357 0.14907,0.70186 0,1 -0.6,1.2 -2.4,1.8 -3,3 -0.14907,0.29814 0.2357,0.7643 0,1 -0.2357,0.2357 -0.7643,-0.2357 -1,0 -0.4714,0.47141 0.4714,1.5286 0,2 -0.2357,0.2357 -0.7643,-0.2357 -1,0 -0.2357,0.2357 0.33333,1 0,1 -0.4714,0 -0.57836,-0.78918 -1,-1 -0.59628,-0.29814 -1.5286,0.47141 -2,0 -0.2357,-0.2357 0.2357,-0.7643 0,-1 -0.20444,-0.20443 -2.60351,0.19825 -3,0 -0.42164,-0.21082 -0.57836,-0.78918 -1,-1 -0.59628,-0.29814 -1.36754,0.21082 -2,0 -1.80994,0.60273 -1.85982,-1.61994 -3,-2 -0.63246,-0.21082 -1.36754,0.21082 -2,0 -0.89443,-0.29814 -1.15673,-1.57836 -2,-2 -2.59188,-1.29594 -4.21339,8.50629 -6,-4 -0.0838,-0.58629 4.60227,-3.53409 6,-4 0.31623,-0.10541 0.68377,0.10541 1,0 0.70711,-0.2357 1.33333,-0.66666 2,-1 1.33333,-0.66666 2.66667,-1.33333 4,-2 1.33333,-0.66666 2.72173,-1.23303 4,-2 1.03058,-0.61834 1.96942,-1.38165 3,-2 0.63914,-0.38348 1.37983,-0.58655 2,-1 0.39223,-0.26149 0.60777,-0.73851 1,-1 1.37258,-0.91505 2.62742,-1.08495 4,-2 0.78446,-0.52297 1.15673,-1.57836 2,-2 0.59763,-0.29881 2,0.65829 2,-1 0,-0.33333 -0.66667,0 -1,0" id="path4261"/>
    <path style="fill:none;stroke:#000000;stroke-width:1px;stroke-linecap:butt;stroke-linejoin:miter;stroke-opacity:1" d="m 572.04163,778.94797 c -1.72754,0.17328 -0.67485,-6.34969 -1,-7 -0.21082,-0.42163 -0.78918,-0.57836 -1,-1 -0.29501,-0.59002 0.22928,-2.31217 0,-3 -0.2357,-0.7071 -0.7643,-1.29289 -1,-2 -0.21082,-0.63245 0.29814,-1.40371 0,-2 -0.21082,-0.42163 -0.78918,-0.57836 -1,-1 -0.14907,-0.29814 0,-0.66666 0,-1 -0.33333,-0.33333 -0.78918,-0.57836 -1,-1 -0.29814,-0.59628 0.4714,-1.52859 0,-2 -0.44444,-0.44444 -1.88889,0.77778 -1,-1 0.21082,-0.42163 0.78918,-0.57836 1,-1 0.14907,-0.29814 -0.2357,-0.7643 0,-1 0.2357,-0.2357 0.7643,0.2357 1,0 0.2357,-0.2357 -0.14907,-0.70186 0,-1 0.42164,-0.84327 1.47702,-1.21553 2,-2 1.53287,-2.2993 0.46713,-2.7007 2,-5 0.26149,-0.39223 0.73851,-0.60777 1,-1 0.41345,-0.62017 0.58655,-1.37982 1,-2 0.71795,-1.07692 1.28205,-0.92307 2,-2 0.41345,-0.62017 0.58655,-1.37982 1,-2 0.26149,-0.39223 0.78918,-0.57836 1,-1 0.14907,-0.29814 -0.2357,-0.7643 0,-1 0.2357,-0.2357 0.7643,0.2357 1,0 0.2357,-0.2357 -0.2357,-0.7643 0,-1 0.2357,-0.2357 0.7643,0.2357 1,0 0.4714,-0.4714 -0.4714,-1.52859 0,-2 0.2357,-0.2357 0.7643,0.2357 1,0 0.2357,-0.2357 -0.2357,-0.7643 0,-1 0.2357,-0.2357 0.7643,-0.2357 1,0 0.2357,0.2357 0,0.66667 0,1 0,1.66667 0,3.33334 0,5 0,0.84665 -0.1792,3.4624 0,4 0.14907,0.44722 0.78918,0.57837 1,1 0.13147,0.26294 0,3.47708 0,4 0,3.33334 0,6.66667 0,10 0,0.36724 -0.0402,3.95976 0,4 0.2357,0.2357 0.66667,0 1,0 0.45036,0 2.69567,0.15217 3,0 0.42164,-0.21082 0.57836,-0.78918 1,-1 0.29814,-0.14907 0.66667,0 1,0 0.33333,0 0.66667,0 1,0 2,0 4,0 6,0 0.36724,0 3.95976,0.0402 4,0 0.2357,-0.2357 -0.2357,-0.7643 0,-1 0.2357,-0.2357 0.66667,0 1,0 0.33333,0 0.7643,-0.2357 1,0 0.2357,0.2357 -0.2357,0.7643 0,1 0.4714,0.47141 2,-0.66666 2,0 0,0.33334 -0.7643,-0.2357 -1,0 -0.33333,0.33334 0.33333,1.66667 0,2 -0.2357,0.2357 -0.7643,-0.2357 -1,0 -0.4714,0.47141 0.4714,1.5286 0,2 -0.2357,0.2357 -0.7643,-0.2357 -1,0 -0.5,0.5 0.5,2.5 0,3 -0.2357,0.2357 -0.7643,-0.2357 -1,0 -0.27362,0.27362 0.27124,3.45751 0,4 -0.21082,0.42164 -0.78918,0.57837 -1,1 -0.31426,0.62852 0.31426,3.37148 0,4 -0.21082,0.42164 -0.78918,0.57837 -1,1 -0.26667,0.53334 0.26667,1.46667 0,2 -0.21082,0.42164 -0.78918,0.57837 -1,1 -0.29814,0.59629 0.4714,1.5286 0,2 -0.0322,0.0322 -2.75747,0 -3,0 -0.45036,0 -2.69567,0.15217 -3,0 -0.42164,-0.21082 -0.57836,-0.78918 -1,-1 -0.5503,-0.27515 -5.21821,0.2606 -6,0 -0.44721,-0.14907 -0.57836,-0.78918 -1,-1 -0.44498,-0.22249 -3.54261,0.15246 -4,0 -0.44721,-0.14907 -0.57836,-0.78918 -1,-1 -0.59628,-0.29814 -1.42834,0.343 -2,0 -1.42915,-0.85749 -3.41479,-1.43945 -4,-3 -1.87032,-4.98753 0.61988,-3.92981 2,-6 0.41345,-0.62017 0.7643,-1.29289 1,-2 0.99228,-2.97683 -2.36787,2.05181 1,-3 0.60688,-0.91031 2.55683,-2.11366 3,-3 0.14907,-0.29814 -0.2357,-0.7643 0,-1 0.2357,-0.2357 0.70186,0.14907 1,0 0.84327,-0.42163 1.15673,-1.57836 2,-2 0.29814,-0.14907 0.70186,0.14907 1,0 0.26035,-0.13017 1.21827,-1.78172 2,-1 0.2357,0.2357 0.2357,0.7643 0,1 -0.2357,0.2357 -0.66667,0 -1,0" id="path4263"/>
    <path style="fill:none;stroke:#000000;stroke-width:1px;stroke-linecap:butt;stroke-linejoin:miter;stroke-opacity:1" d="m 531.96699,568.71752 c 0,-1.66666 0,-3.33333 0,-5 0,-0.33333 0.14907,-0.70186 0,-1 -0.21082,-0.42163 -0.78918,-0.57836 -1,-1 -0.14907,-0.29814 0,-0.66666 0,-1 0,-0.8187 0.21597,-4.35208 0,-5 -0.2357,-0.7071 -0.81922,-1.2769 -1,-2 -0.2033,-0.8132 0,-4.95316 0,-6 0,-0.33333 0,-0.66666 0,-1 0,-0.33333 0.14907,-0.70186 0,-1 -0.21082,-0.42163 -0.78918,-0.57836 -1,-1 -0.14907,-0.29814 0,-0.66666 0,-1 0,-0.33333 0,-0.66666 0,-1 0,-2 0,-4 0,-6 0,-0.33333 0,-0.66666 0,-1 0,-0.33333 -0.2357,-0.7643 0,-1 0.2357,-0.2357 0.7643,0.2357 1,0 0.2357,-0.2357 -0.14907,-0.70186 0,-1 0.42164,-0.84327 1.57836,-1.15672 2,-2 0.14907,-0.29814 -0.14907,-0.70186 0,-1 0.49201,-0.98403 3.50799,-3.01597 4,-4 0.14907,-0.29814 -0.2357,-0.7643 0,-1 0.2357,-0.2357 0.70186,0.14907 1,0 0.42164,-0.21082 0.66667,-0.66666 1,-1 0.33333,-0.33333 0.78918,-0.57836 1,-1 0,-2.66666 -0.33333,0.33334 1,-1 0.2357,-0.2357 -0.33333,-1 0,-1 1.42005,0 1,2.28901 1,3 0,0.45036 -0.15217,2.69567 0,3 0.21082,0.42164 0.85093,0.55279 1,1 0.15246,0.45739 -0.22249,3.55503 0,4 0.21082,0.42164 0.78918,0.57837 1,1 0.4,0.8 -0.4,2.2 0,3 0.21082,0.42164 0.78918,0.57837 1,1 0.26667,0.53334 -0.26667,1.46667 0,2 0.21082,0.42164 0.78918,0.57837 1,1 0.4,0.8 -0.4,2.2 0,3 0.21082,0.42164 0.78918,0.57837 1,1 0.13147,0.26294 0,3.47708 0,4 0,0.33334 0,0.66667 0,1 0,0.33334 -0.2357,0.7643 0,1 0.2357,0.2357 0.7643,-0.2357 1,0 0.2357,0.2357 0.33333,1 0,1 -0.33333,0 0.33333,-1 0,-1 -2.08088,0 -0.40237,1.40237 -1,2 -0.2357,0.2357 -0.7643,-0.2357 -1,0 -0.2357,0.2357 0.2357,0.7643 0,1 -0.2357,0.2357 -1,0.33334 -1,0 0,-0.33333 0.66667,0 1,0 0.33333,0 0.66667,0 1,0 1.33333,0 2.66667,0 4,0 2.66667,0 5.33333,0 8,0 0.52292,0 3.73706,-0.13147 4,0 0.42164,0.21082 0.57836,0.78918 1,1 1.74755,0.87378 0.37377,-1 2,-1 0.33333,0 0,0.66667 0,1 0,0.66667 0,1.33334 0,2 0,0.33334 0,0.66667 0,1 0,0.33334 0.2357,0.7643 0,1 -0.2357,0.2357 -0.7643,-0.2357 -1,0 -0.2357,0.2357 0,0.66667 0,1 0,2 0,4 0,6 0,0.33334 0.2357,0.7643 0,1 -0.2357,0.2357 -0.7643,-0.2357 -1,0 -0.30965,0.30965 0.30965,4.69036 0,5 -0.2357,0.2357 -0.66667,0 -1,0 -0.33333,0 -0.66667,0 -1,0 -0.33333,0 -0.70186,0.14907 -1,0 -2.4714,-1.2357 0.34518,-1 -2,-1 -7,0 -14,0 -21,0 -1.52962,0 -5,0.14907 -5,-2 0,-1.66666 2.82149,-1.82149 4,-3 0.52705,-0.52704 0.58655,-1.37982 1,-2 0.26149,-0.39223 0.85093,-0.55278 1,-1 0.21082,-0.63245 -0.21082,-1.36754 0,-2 0.14907,-0.44721 0.73851,-0.60777 1,-1 0.41345,-0.62017 0.58655,-1.37982 1,-2 0.52298,-0.78446 1.57836,-1.15672 2,-2 0.14907,-0.29814 -0.14907,-0.70186 0,-1 0.21082,-0.42163 0.78918,-0.57836 1,-1 0.14907,-0.29814 -0.2357,-0.7643 0,-1 0.2357,-0.2357 0.7643,0.2357 1,0 1.33333,-1.33333 -1.66667,-1 1,-1" id="path4265"/>
    <path style="fill:none;stroke:#000000;stroke-width:1px;stroke-linecap:butt;stroke-linejoin:miter;stroke-opacity:1" d="m 516.10555,871.49778 c 1.25171,-2.98921 1,-5.89118 1,-9 0,-1 0.31623,-2.05131 0,-3 -0.14907,-0.44721 -0.78918,-0.57836 -1,-1 -0.14907,-0.29814 0,-0.66666 0,-1 0,-0.66666 0.21082,-1.36754 0,-2 -0.14907,-0.44721 -0.78918,-0.57836 -1,-1 -0.27124,-0.54249 0.27362,-3.72638 0,-4 -0.44444,-0.44444 -1.88889,0.77778 -1,-1 0.27782,-0.55563 2,-1.67756 2,-2 0,-0.33333 -1,0.33334 -1,0 0,-0.4714 0.66667,-0.66666 1,-1 0.33333,-0.33333 0.57836,-0.78918 1,-1 0.29814,-0.14907 0.7643,0.2357 1,0 0.2357,-0.2357 -0.14907,-0.70186 0,-1 0.17883,-0.35765 3.58414,-3.72275 4,-4 0.62017,-0.41345 1.37983,-0.58655 2,-1 1.3757,-0.91713 1.02848,-1.54272 2,-3 0.26149,-0.39223 0.66667,-0.66666 1,-1 0.33333,-0.33333 0.57836,-0.78918 1,-1 0.29814,-0.14907 0.7643,0.2357 1,0 0.2357,-0.2357 -0.2357,-0.7643 0,-1 0.2357,-0.2357 0.7643,0.2357 1,0 0.2357,-0.2357 -0.2357,-0.7643 0,-1 0.2357,-0.2357 0.66667,0 1,0 0.33333,0 0.7643,-0.2357 1,0 0.2357,0.2357 0,0.66667 0,1 0,1.66667 0,3.33334 0,5 0,0.93882 -0.191,4.42701 0,5 0.14907,0.44722 0.85093,0.55279 1,1 0.16194,0.48583 0,5.97905 0,7 0,0.33334 -0.14907,0.70186 0,1 0.21082,0.42164 0.78918,0.57837 1,1 0.29814,0.59629 -0.29814,1.40372 0,2 0.21082,0.42164 0.78918,0.57837 1,1 0.29814,0.59629 -0.4714,1.5286 0,2 0.2357,0.2357 0.7643,-0.2357 1,0 0.2357,0.2357 0.2357,0.7643 0,1 -0.2357,0.2357 -0.7643,-0.2357 -1,0 -0.2357,0.2357 0,0.66667 0,1 0,0.33334 -0.2357,0.7643 0,1 0.2357,0.2357 0.66667,0 1,0 0.33333,0 0.66667,0 1,0 0.69554,0 4.63837,-0.18081 5,0 0.42164,0.21082 0.57836,0.78918 1,1 0.30404,0.15202 3.30948,0 4,0 0.52292,0 3.73706,-0.13147 4,0 2.4714,1.2357 -0.34518,1 2,1 0.66667,0 1.33333,0 2,0 0.33333,0 1,-0.33333 1,0 0,0.47141 -0.78918,0.57837 -1,1 -0.14907,0.29814 0.14907,0.70186 0,1 -0.42164,0.84328 -1.57836,1.15673 -2,2 -0.14907,0.29814 0.14907,0.70186 0,1 -3.31658,3.31658 0.4714,-0.94281 -1,2 -2.2883,4.57661 0.41447,-4.24341 -2,3 -0.10541,0.31623 0.14907,0.70186 0,1 -0.42164,0.84328 -1.57836,1.15673 -2,2 -0.27124,0.54249 0.27362,3.72638 0,4 -0.2357,0.2357 -0.7643,-0.2357 -1,0 -0.4714,0.47141 0.4714,1.5286 0,2 -0.2357,0.2357 -0.7643,-0.2357 -1,0 -0.2357,0.2357 0.2357,0.7643 0,1 -0.2357,0.2357 -0.66667,0 -1,0 -0.45036,0 -2.69567,0.15217 -3,0 -0.42164,-0.21082 -0.57836,-0.78918 -1,-1 -0.62852,-0.31426 -3.37148,0.31426 -4,0 -0.42164,-0.21082 -0.55279,-0.85093 -1,-1 -1.26491,-0.42163 -2.73509,0.42164 -4,0 -0.44721,-0.14907 -0.55279,-0.85093 -1,-1 -0.63246,-0.21082 -1.35324,0.16169 -2,0 -4.59628,-1.14907 -0.22688,-1 -3,-1 -4.55228,0 -0.0572,0.47141 -3,-1 -0.39649,-0.19824 -2.79556,0.20444 -3,0 -0.2357,-0.2357 0.2357,-0.7643 0,-1 -0.23942,-0.23942 -4,0.22733 -4,0 0,-0.33333 0.70186,0.14907 1,0 0.42164,-0.21082 0.57836,-0.78918 1,-1 0.29814,-0.14907 0.70186,0.14907 1,0 0.84327,-0.42163 1.21554,-1.47702 2,-2 0.62017,-0.41345 1.33333,-0.66666 2,-1 0.66667,-0.66666 1.24575,-1.43431 2,-2 0.59629,-0.44721 1.40372,-0.55278 2,-1 0.75425,-0.56568 1.33333,-1.33333 2,-2 1.66667,-1.66666 3.33333,-3.33333 5,-5 0.33333,-0.33333 0.60777,-0.73851 1,-1 0.62017,-0.41345 1.47295,-0.47295 2,-1 0.2357,-0.2357 -0.2357,-0.7643 0,-1 0.2357,-0.2357 0.66667,0 1,0 1.8271,0 1,0.23984 1,2" id="path4267"/>
    <path style="fill:none;stroke:#000000;stroke-width:1px;stroke-linecap:butt;stroke-linejoin:miter;stroke-opacity:1" d="m 562.79898,740.06929 0,-63.57359" id="path4269"/>
    <text xml:space="preserve" style="font-size:10px;font-style:normal;font-variant:normal;font-weight:normal;font-stretch:normal;text-align:start;line-height:125%;letter-spacing:0px;word-spacing:0px;text-anchor:start;fill:#000000;fill-opacity:1;stroke:none;font-family:Univers Else;-inkscape-font-specification:Univers Else" x="573.04163" y="726.94794" id="text4273"><tspan id="tspan4275" x="573.04163" y="726.94794">192.168.1.11</tspan></text>
    <text xml:space="preserve" style="font-size:10px;font-style:normal;font-variant:normal;font-weight:normal;font-stretch:normal;text-align:start;line-height:125%;letter-spacing:0px;word-spacing:0px;text-anchor:start;fill:#000000;fill-opacity:1;stroke:none;font-family:Univers Else;-inkscape-font-specification:Univers Else" x="235.41422" y="875.78857" id="text4277"><tspan id="tspan4279" x="235.41422" y="875.78857">192.168.200.120</tspan></text>
    <text xml:space="preserve" style="font-size:10px;font-style:normal;font-variant:normal;font-weight:normal;font-stretch:normal;text-align:start;line-height:125%;letter-spacing:0px;word-spacing:0px;text-anchor:start;fill:#000000;fill-opacity:1;stroke:none;font-family:Univers Else;-inkscape-font-specification:Univers Else" x="327.41422" y="917.78857" id="text4281"><tspan id="tspan4283" x="327.41422" y="917.78857">192.168.200.159</tspan></text>
    <text xml:space="preserve" style="font-size:10px;font-style:normal;font-variant:normal;font-weight:normal;font-stretch:normal;text-align:start;line-height:125%;letter-spacing:0px;word-spacing:0px;text-anchor:start;fill:#000000;fill-opacity:1;stroke:none;font-family:Univers Else;-inkscape-font-specification:Univers Else" x="349.07687" y="852.54358" id="text4281-3"><tspan id="tspan4283-4" x="349.07687" y="852.54358">192.168.200.133</tspan></text>
    <text xml:space="preserve" style="font-size:10px;font-style:normal;font-variant:normal;font-weight:normal;font-stretch:normal;text-align:start;line-height:125%;letter-spacing:0px;word-spacing:0px;text-anchor:start;fill:#000000;fill-opacity:1;stroke:none;font-family:Univers Else;-inkscape-font-specification:Univers Else" x="477.38181" y="829.57599" id="text4273-2"><tspan id="tspan4275-3" x="477.38181" y="829.57599">192.168.1.15</tspan></text>
    <path style="fill:none;stroke:#000000;stroke-width:1px;stroke-linecap:butt;stroke-linejoin:miter;stroke-opacity:1" d="m 526.64884,817.33571 0,-141.42136 0,0" id="path4339"/>
    <text xml:space="preserve" style="font-size:10px;font-style:normal;font-variant:normal;font-weight:normal;font-stretch:normal;text-align:start;line-height:125%;letter-spacing:0px;word-spacing:0px;text-anchor:start;fill:#000000;fill-opacity:1;stroke:none;font-family:Univers Else;-inkscape-font-specification:Univers Else" x="526.17218" y="583.50281" id="text4273-8"><tspan id="tspan4275-5" x="526.17218" y="583.50281">192.168.1.8</tspan></text>
    <text xml:space="preserve" style="font-size:10px;font-style:normal;font-variant:normal;font-weight:normal;font-stretch:normal;text-align:start;line-height:125%;letter-spacing:0px;word-spacing:0px;text-anchor:start;fill:#000000;fill-opacity:1;stroke:none;font-family:Univers Else;-inkscape-font-specification:Univers Else" x="332.91422" y="632.28857" id="text4458"><tspan x="332.91422" y="632.28857" id="tspan4462">bridge</tspan><tspan x="332.91422" y="644.78857" id="tspan5100">DHCP</tspan></text>
    <path style="fill:none;stroke:#000000;stroke-width:1.25;stroke-linecap:butt;stroke-linejoin:miter;stroke-miterlimit:4;stroke-opacity:1;stroke-dasharray:none;marker-start:url(#Arrow1Mstart);marker-end:url(#Arrow1Mend)" d="m 330.16421,618.53859 35.5,0" id="path4464"/>
    <text xml:space="preserve" style="font-size:10px;font-style:normal;font-variant:normal;font-weight:normal;font-stretch:normal;text-align:start;line-height:125%;letter-spacing:0px;word-spacing:0px;text-anchor:start;fill:#000000;fill-opacity:1;stroke:none;font-family:Univers Else;-inkscape-font-specification:Univers Else" x="279.84406" y="771.82422" id="text4458-3"><tspan x="279.84406" y="771.82422" id="tspan4462-1">route</tspan><tspan x="279.84406" y="784.32422" id="tspan5100-2">DHCP</tspan></text>
    <text xml:space="preserve" style="font-size:10px;font-style:normal;font-variant:normal;font-weight:normal;font-stretch:normal;text-align:start;line-height:125%;letter-spacing:0px;word-spacing:0px;text-anchor:start;fill:#000000;fill-opacity:1;stroke:none;font-family:Univers Else;-inkscape-font-specification:Univers Else" x="329.71005" y="114.68454" id="text5126"><tspan id="tspan5128" x="329.71005" y="114.68454">google</tspan></text>
    <text xml:space="preserve" style="font-size:10px;font-style:normal;font-variant:normal;font-weight:normal;font-stretch:normal;text-align:start;line-height:125%;letter-spacing:0px;word-spacing:0px;text-anchor:start;fill:#000000;fill-opacity:1;stroke:none;font-family:Univers Else;-inkscape-font-specification:Univers Else" x="387.11688" y="136.45158" id="text5130"><tspan id="tspan5132" x="387.11688" y="136.45158">wikipedia</tspan></text>
    <text xml:space="preserve" style="font-size:10px;font-style:normal;font-variant:normal;font-weight:normal;font-stretch:normal;text-align:start;line-height:125%;letter-spacing:0px;word-spacing:0px;text-anchor:start;fill:#000000;fill-opacity:1;stroke:none;font-family:Univers Else;-inkscape-font-specification:Univers Else" x="227.17325" y="139.36832" id="text5134"><tspan id="tspan5136" x="227.17325" y="139.36832">github</tspan></text>
    <text xml:space="preserve" style="font-size:10px;font-style:normal;font-variant:normal;font-weight:normal;font-stretch:normal;text-align:start;line-height:125%;letter-spacing:0px;word-spacing:0px;text-anchor:start;fill:#000000;fill-opacity:1;stroke:none;font-family:Univers Else;-inkscape-font-specification:Univers Else" x="464.65598" y="126.58888" id="text5138"><tspan id="tspan5140" x="464.65598" y="126.58888">facebook</tspan></text>
    <text xml:space="preserve" style="font-size:10px;font-style:normal;font-variant:normal;font-weight:normal;font-stretch:normal;text-align:start;line-height:125%;letter-spacing:0px;word-spacing:0px;text-anchor:start;fill:#000000;fill-opacity:1;stroke:none;font-family:Univers Else;-inkscape-font-specification:Univers Else" x="544.16418" y="116.78859" id="text5142"><tspan id="tspan5144" x="544.16418" y="116.78859">oauth</tspan><tspan x="544.16418" y="129.28859" id="tspan5146">darknet</tspan></text>
    <text xml:space="preserve" style="font-size:10px;font-style:normal;font-variant:normal;font-weight:normal;font-stretch:normal;text-align:start;line-height:125%;letter-spacing:0px;word-spacing:0px;text-anchor:start;fill:#000000;fill-opacity:1;stroke:none;font-family:Univers Else;-inkscape-font-specification:Univers Else" x="525.91418" y="145.03859" id="text5148"><tspan id="tspan5150" x="525.91418" y="145.03859">twitter</tspan></text>
    <text xml:space="preserve" style="font-size:10px;font-style:normal;font-variant:normal;font-weight:normal;font-stretch:normal;text-align:start;line-height:125%;letter-spacing:0px;word-spacing:0px;text-anchor:start;fill:#000000;fill-opacity:1;stroke:none;font-family:Univers Else;-inkscape-font-specification:Univers Else" x="162.41422" y="132.78859" id="text5152"><tspan id="tspan5154" x="162.41422" y="132.78859">gitorious</tspan></text>
    <text xml:space="preserve" style="font-size:10px;font-style:normal;font-variant:normal;font-weight:normal;font-stretch:normal;text-align:start;line-height:125%;letter-spacing:0px;word-spacing:0px;text-anchor:start;fill:#000000;fill-opacity:1;stroke:none;font-family:Univers Else;-inkscape-font-specification:Univers Else" x="251.19006" y="203.94928" id="text3914-1"><tspan id="tspan3916-6" x="251.19006" y="203.94928">constantvzw.org</tspan><tspan x="251.19006" y="216.44928" id="tspan4223-2">domainepublic.net</tspan><tspan x="251.19006" y="228.94928" id="tspan4225-2">all2all.org (BE)</tspan></text>
    <g id="g3952-5-0" transform="translate(397.75097,-27.122321)">
      <text id="text3942-4-1" y="277.36218" x="33.5" style="font-size:10px;font-style:normal;font-variant:normal;font-weight:normal;font-stretch:normal;text-align:start;line-height:125%;letter-spacing:0px;word-spacing:0px;text-anchor:start;fill:#000000;fill-opacity:1;stroke:none;font-family:Univers Else;-inkscape-font-specification:Univers Else" xml:space="preserve"><tspan y="277.36218" x="33.5" id="tspan3944-5-0">€</tspan></text>
      <rect y="254.36218" x="23.5" height="40.5" width="27" id="rect3946-08-0" style="color:#000000;fill:none;stroke:#000000;stroke-width:1.25;stroke-linecap:butt;stroke-linejoin:miter;stroke-miterlimit:4;stroke-opacity:1;stroke-dasharray:none;stroke-dashoffset:0;marker:none;visibility:visible;display:inline;overflow:visible;enable-background:accumulate"/>
    </g>
    <g style="stroke:#000000" id="g2995-3" transform="matrix(0.13269793,0,0,0.13269793,210.57892,269.80851)">
      <g style="stroke-width:2.06920004" id="g3163-5" transform="matrix(2.8997,0,0,2.8997,306.67,-499.27)">
        <path id="path3165-6" style="color:#000000;fill:#ffffff" d="m 59.533,140.25 c -8.8553,-3.9849 -13.627,-7.5382 -26.114,-4.0176 0,0 -14.792,-16.436 -16.618,-37.071 l 41.271,13.879 c 0,0 4.9307,2.9219 9.6787,-2.374 4.748,-5.2959 6.9395,-14.975 18.81,-1.6436 l 18.039,11.35 c 5.2082,6.973 10.416,11.751 15.625,20.919 4.4122,6.3213 -2.5038,14.101 -9.4265,9.8139 -0.22834,6.464 -6.0328,7.5803 -11.105,3.6156 -0.46763,4.8467 -8.0035,5.1303 -11.105,1.4204 z"/>
        <g style="fill:none" id="g3167-7">
          <path id="path3169-9" d="M 111.23,151.77 99.344,134.59"/>
          <path id="path3171-8" d="M 99.618,154.62 92.4046,143.264"/>
        </g>
      </g>
      <path id="path3173-2" style="color:#000000;fill:#ffffff;stroke-width:6" d="m 728.28,-106.06 c 35.197,-24.713 47.179,-100.35 47.179,-100.35 -14.229,-3.7444 -133.3,36.695 -133.3,36.695 -3.7444,2.9955 -8.9865,-2.2466 -8.9865,-2.2466 -42.686,-51.672 -75.636,-10.484 -75.636,-10.484 l -14.977,35.946 c -7.5714,25.877 18.904,28.501 26.959,17.224 l 9.7353,-18.722 c 9.7353,-20.968 29.955,-2.2466 29.955,-2.2466 l 38.192,45.681 c 39.69,5.2421 80.878,-1.4978 80.878,-1.4978 z"/>
      <g style="stroke-width:2.06920004" id="g3175-2" transform="matrix(2.8997,0,0,2.8997,306.67,-499.27)">
        <path id="path3177-6" style="color:#000000;fill:#ffffff" d="m 71.344,136.31 c -2.282,0.058 -4.3852,3.0046 -4.6875,5 -0.01082,-0.01 -0.02029,-0.0215 -0.03125,-0.0312 -0.9708,-7.1275 -8.283,-2.6904 -6.9688,-0.5 0,3.3574 -0.5,11.625 -0.5,11.625 0.27378,3.642 5.1497,3.07 6.2812,1.1562 -0.0205,0.0833 -0.09375,0.375 -0.09375,0.375 -1.0924,3.4008 4.8889,4.9414 6.3125,2.0625 -0.01757,0.0378 -0.125,0.28125 -0.125,0.28125 -3.8739,7.4895 5.6875,5.1562 5.6875,5.1562 0.13537,-0.11603 0.24388,-0.25717 0.375,-0.375 l -0.625,0.875 c 0,0 -0.7672,5.4228 4.6562,4.9062 5.4234,-0.5166 4.6362,-2.8348 7.2188,-8 2.8678,-1.7207 0.1934,-8.889 -5.1562,-5.9375 l -0.687,0.93 c 2.9842,-6.1759 2.75,-12.031 2.75,-12.031 -0.62951,-3.777 -2.58,-5.1537 -4.625,-5.125 -2.3798,0.0334 -4.8743,1.9745 -5.5625,4.1875 -0.04448,-0.12457 -0.10422,-0.25381 -0.15625,-0.375 -1.1574,-3.1533 -2.6442,-4.2236 -4.0625,-4.1875 z"/>
        <g style="fill:none" id="g3179-7">
          <path id="path3181-4" d="m 76.882,161.62 c 3.561,-1.9175 7.3047,-10.592 7.3047,-10.592"/>
          <path id="path3183-0" d="m 70.125,157.69 c 5.7524,-6.209 5.3872,-17.623 5.3872,-17.623"/>
          <path id="path3185-5" d="m 64.646,154.68 c 3.1958,-4.6567 1.8262,-15.066 1.8262,-15.066"/>
        </g>
      </g>
    </g>
    <text xml:space="preserve" style="font-size:10px;font-style:normal;font-variant:normal;font-weight:normal;font-stretch:normal;text-align:start;line-height:125%;letter-spacing:0px;word-spacing:0px;text-anchor:start;fill:#000000;fill-opacity:1;stroke:none;font-family:Univers Else;-inkscape-font-specification:Univers Else" x="402.6037" y="209.03555" id="text4138-4"><tspan id="tspan4140-1" x="402.6037" y="209.03555">relearn.be</tspan><tspan x="402.6037" y="221.53555" id="tspan4227-1">cloudvps.com (NL)</tspan></text>
    <text xml:space="preserve" style="font-size:10px;font-style:normal;font-variant:normal;font-weight:normal;font-stretch:normal;text-align:start;line-height:125%;letter-spacing:0px;word-spacing:0px;text-anchor:start;fill:#000000;fill-opacity:1;stroke:none;font-family:Univers Else;-inkscape-font-specification:Univers Else" x="541.57941" y="261.00461" id="text3159-2"><tspan id="tspan3161-6" x="541.57941" y="261.00461">etherpad-lite</tspan></text>
    <text xml:space="preserve" style="font-size:10px;font-style:normal;font-variant:normal;font-weight:normal;font-stretch:normal;text-align:start;line-height:125%;letter-spacing:0px;word-spacing:0px;text-anchor:start;fill:#000000;fill-opacity:1;stroke:none;font-family:Univers Else;-inkscape-font-specification:Univers Else" x="499.6759" y="280.97919" id="text3163-6"><tspan id="tspan3165-2" x="499.6759" y="280.97919">ethertoff</tspan></text>
    <text xml:space="preserve" style="font-size:10px;font-style:normal;font-variant:normal;font-weight:normal;font-stretch:normal;text-align:start;line-height:125%;letter-spacing:0px;word-spacing:0px;text-anchor:start;fill:#000000;fill-opacity:1;stroke:none;font-family:Univers Else;-inkscape-font-specification:Univers Else" x="458.0083" y="256.50461" id="text3167-0"><tspan id="tspan3169-2" x="458.0083" y="256.50461">apache/nginx</tspan></text>
    <text xml:space="preserve" style="font-size:10px;font-style:normal;font-variant:normal;font-weight:normal;font-stretch:normal;text-align:start;line-height:125%;letter-spacing:0px;word-spacing:0px;text-anchor:start;fill:#000000;fill-opacity:1;stroke:none;font-family:Univers Else;-inkscape-font-specification:Univers Else" x="515.50836" y="238.50458" id="text3171-4"><tspan id="tspan3173-4" x="515.50836" y="238.50458">django</tspan></text>
    <g id="g3550" transform="translate(-7.01202,18.804839)">
      <path id="path3540" d="m 256,179.36218 c 1.22316,3.00625 1,5.88748 1,9 0,0.33334 -0.2357,0.7643 0,1 0.0322,0.0322 2.75747,0 3,0 2.66667,0 5.33333,0 8,0 0.45036,0 2.69567,0.15217 3,0 0.42164,-0.21082 0.57836,-0.78918 1,-1 0.26294,-0.13147 3.47708,0 4,0 3.33333,0 6.66667,0 10,0 9.66667,0 19.33333,0 29,0 2,0 4,0 6,0 0.33333,0 0.66667,0 1,0 0.33333,0 0.70186,-0.14907 1,0 0.42164,0.21082 0.57836,0.78918 1,1 0.29814,0.14907 0.66667,0 1,0 1.66667,0 3.33333,0 5,0 0.33333,0 0.66667,0 1,0 0.33333,0 0.70186,-0.14907 1,0 0.42164,0.21082 0.57836,0.78918 1,1 0.26294,0.13147 3.47708,0 4,0 2.66667,0 5.33333,0 8,0 1.66667,0 3.33333,0 5,0 0.33333,0 0.7643,0.2357 1,0 0.2357,-0.2357 0,-0.66666 0,-1 0,-0.33333 0.14907,-0.70185 0,-1 -0.21082,-0.42163 -0.78918,-0.57836 -1,-1 -0.12928,-0.25855 0,-5.2912 0,-6 0,-2.33333 0,-4.66666 0,-7 0,-0.33333 0.2357,-0.7643 0,-1 -0.2357,-0.2357 -0.66667,0 -1,0 -1.66667,0 -3.33333,0 -5,0 -0.33333,0 -0.66667,0 -1,0 -0.33333,0 -0.7643,-0.2357 -1,0 -0.2357,0.2357 0.2357,0.7643 0,1 -0.0322,0.0322 -2.75747,0 -3,0 -5.33333,0 -10.66667,0 -16,0 -3.66667,0 -7.33333,0 -11,0 -0.52292,0 -3.73706,-0.13147 -4,0 -0.42164,0.21082 -0.57836,0.78918 -1,1 -0.26294,0.13147 -3.47708,0 -4,0 -3,0 -6,0 -9,0 -6.33333,0 -12.66667,0 -19,0 -2,0 -4,0 -6,0 -0.33333,0 -0.66667,0 -1,0 -0.33333,0 -0.70186,0.14907 -1,0 -0.42164,-0.21082 -0.57836,-0.78918 -1,-1 -0.36163,-0.18081 -4.30446,0 -5,0 -0.36724,0 -3.95976,0.0402 -4,0 -0.2357,-0.2357 0.2357,-0.7643 0,-1 -0.2357,-0.2357 -0.66667,0 -1,0 -0.33333,0 -0.7643,-0.2357 -1,0 -0.2357,0.2357 -0.0548,0.6712 0,1 0.27942,1.67655 0.66667,3.33334 1,5 z" style="fill:none;stroke:#000000;stroke-width:1px;stroke-linecap:butt;stroke-linejoin:miter;stroke-opacity:1"/>
      <path id="path3542" d="m 255,172.36218 c 1.33333,-0.33333 3.66667,-2.33333 4,-1 0.33333,1.33334 -4.97183,1.97183 -4,1 1.2693,-1.26929 3.39445,-1.19722 5,-2 0.42164,-0.21082 0.57836,-0.78918 1,-1 0.59628,-0.29814 1.40372,0.29815 2,0 0.42164,-0.21082 0.57836,-0.78918 1,-1 0.29814,-0.14907 0.70186,0.14907 1,0 0.42164,-0.21082 0.57836,-0.78918 1,-1 0.29814,-0.14907 0.70186,0.14907 1,0 0.42164,-0.21082 0.57836,-0.78918 1,-1 0.39649,-0.19824 2.79556,0.20444 3,0 0.2357,-0.2357 -0.2357,-0.7643 0,-1 0.4714,-0.4714 1.5286,0.47141 2,0 0.2357,-0.2357 -0.2357,-0.7643 0,-1 0.4714,-0.4714 1.5286,0.47141 2,0 0.2357,-0.2357 -0.2357,-0.7643 0,-1 0.2357,-0.2357 0.70186,0.14907 1,0 0.42164,-0.21082 0.57836,-0.78918 1,-1 0.29814,-0.14907 0.7643,0.2357 1,0 0.2357,-0.2357 -0.2357,-0.7643 0,-1 0.4714,-0.4714 1.5286,0.47141 2,0 0.2357,-0.2357 -0.2357,-0.7643 0,-1 0.4714,-0.4714 1.5286,0.47141 2,0 1.33333,-1.33333 -1.66667,-1 1,-1 2.33333,0.66667 4.64575,1.41144 7,2 0.86922,0.21731 3.01122,0 4,0 2.33333,0 4.66667,0 7,0 0.69554,0 4.63837,0.18082 5,0 0.42164,-0.21082 0.55279,-0.85093 1,-1 0.56886,-0.18962 4.05816,0 5,0 3.33333,0 6.66667,0 10,0 0.52292,0 3.73706,0.13147 4,0 0.42164,-0.21082 0.57836,-0.78918 1,-1 0.11162,-0.0558 4.88838,-0.0558 5,0 0.42164,0.21082 0.57836,0.78918 1,1 0.30433,0.15217 2.54964,0 3,0 2,0 4,0 6,0" style="fill:none;stroke:#000000;stroke-width:1px;stroke-linecap:butt;stroke-linejoin:miter;stroke-opacity:1"/>
      <path id="path3544" d="m 337,162.36218 c 1.33333,1 2.57085,2.14251 4,3 0.28583,0.1715 0.70186,-0.14907 1,0 0.84327,0.42164 1.15673,1.57837 2,2 0.29814,0.14907 0.70186,-0.14907 1,0 0.42164,0.21082 0.57836,0.78918 1,1 0.29814,0.14907 0.7643,-0.2357 1,0 0.2357,0.2357 -0.2357,0.7643 0,1 0.2357,0.2357 0.70186,-0.14907 1,0 2.4714,1.2357 -0.34518,1 2,1" style="fill:none;stroke:#000000;stroke-width:1px;stroke-linecap:butt;stroke-linejoin:miter;stroke-opacity:1"/>
    </g>
    <g id="g3550-2" transform="translate(142.51042,22.81908)">
      <path id="path3540-8" d="m 256,179.36218 c 1.22316,3.00625 1,5.88748 1,9 0,0.33334 -0.2357,0.7643 0,1 0.0322,0.0322 2.75747,0 3,0 2.66667,0 5.33333,0 8,0 0.45036,0 2.69567,0.15217 3,0 0.42164,-0.21082 0.57836,-0.78918 1,-1 0.26294,-0.13147 3.47708,0 4,0 3.33333,0 6.66667,0 10,0 9.66667,0 19.33333,0 29,0 2,0 4,0 6,0 0.33333,0 0.66667,0 1,0 0.33333,0 0.70186,-0.14907 1,0 0.42164,0.21082 0.57836,0.78918 1,1 0.29814,0.14907 0.66667,0 1,0 1.66667,0 3.33333,0 5,0 0.33333,0 0.66667,0 1,0 0.33333,0 0.70186,-0.14907 1,0 0.42164,0.21082 0.57836,0.78918 1,1 0.26294,0.13147 3.47708,0 4,0 2.66667,0 5.33333,0 8,0 1.66667,0 3.33333,0 5,0 0.33333,0 0.7643,0.2357 1,0 0.2357,-0.2357 0,-0.66666 0,-1 0,-0.33333 0.14907,-0.70185 0,-1 -0.21082,-0.42163 -0.78918,-0.57836 -1,-1 -0.12928,-0.25855 0,-5.2912 0,-6 0,-2.33333 0,-4.66666 0,-7 0,-0.33333 0.2357,-0.7643 0,-1 -0.2357,-0.2357 -0.66667,0 -1,0 -1.66667,0 -3.33333,0 -5,0 -0.33333,0 -0.66667,0 -1,0 -0.33333,0 -0.7643,-0.2357 -1,0 -0.2357,0.2357 0.2357,0.7643 0,1 -0.0322,0.0322 -2.75747,0 -3,0 -5.33333,0 -10.66667,0 -16,0 -3.66667,0 -7.33333,0 -11,0 -0.52292,0 -3.73706,-0.13147 -4,0 -0.42164,0.21082 -0.57836,0.78918 -1,1 -0.26294,0.13147 -3.47708,0 -4,0 -3,0 -6,0 -9,0 -6.33333,0 -12.66667,0 -19,0 -2,0 -4,0 -6,0 -0.33333,0 -0.66667,0 -1,0 -0.33333,0 -0.70186,0.14907 -1,0 -0.42164,-0.21082 -0.57836,-0.78918 -1,-1 -0.36163,-0.18081 -4.30446,0 -5,0 -0.36724,0 -3.95976,0.0402 -4,0 -0.2357,-0.2357 0.2357,-0.7643 0,-1 -0.2357,-0.2357 -0.66667,0 -1,0 -0.33333,0 -0.7643,-0.2357 -1,0 -0.2357,0.2357 -0.0548,0.6712 0,1 0.27942,1.67655 0.66667,3.33334 1,5 z" style="fill:none;stroke:#000000;stroke-width:1px;stroke-linecap:butt;stroke-linejoin:miter;stroke-opacity:1"/>
      <path id="path3542-0" d="m 255,172.36218 c 1.33333,-0.33333 3.66667,-2.33333 4,-1 0.33333,1.33334 -4.97183,1.97183 -4,1 1.2693,-1.26929 3.39445,-1.19722 5,-2 0.42164,-0.21082 0.57836,-0.78918 1,-1 0.59628,-0.29814 1.40372,0.29815 2,0 0.42164,-0.21082 0.57836,-0.78918 1,-1 0.29814,-0.14907 0.70186,0.14907 1,0 0.42164,-0.21082 0.57836,-0.78918 1,-1 0.29814,-0.14907 0.70186,0.14907 1,0 0.42164,-0.21082 0.57836,-0.78918 1,-1 0.39649,-0.19824 2.79556,0.20444 3,0 0.2357,-0.2357 -0.2357,-0.7643 0,-1 0.4714,-0.4714 1.5286,0.47141 2,0 0.2357,-0.2357 -0.2357,-0.7643 0,-1 0.4714,-0.4714 1.5286,0.47141 2,0 0.2357,-0.2357 -0.2357,-0.7643 0,-1 0.2357,-0.2357 0.70186,0.14907 1,0 0.42164,-0.21082 0.57836,-0.78918 1,-1 0.29814,-0.14907 0.7643,0.2357 1,0 0.2357,-0.2357 -0.2357,-0.7643 0,-1 0.4714,-0.4714 1.5286,0.47141 2,0 0.2357,-0.2357 -0.2357,-0.7643 0,-1 0.4714,-0.4714 1.5286,0.47141 2,0 1.33333,-1.33333 -1.66667,-1 1,-1 2.33333,0.66667 4.64575,1.41144 7,2 0.86922,0.21731 3.01122,0 4,0 2.33333,0 4.66667,0 7,0 0.69554,0 4.63837,0.18082 5,0 0.42164,-0.21082 0.55279,-0.85093 1,-1 0.56886,-0.18962 4.05816,0 5,0 3.33333,0 6.66667,0 10,0 0.52292,0 3.73706,0.13147 4,0 0.42164,-0.21082 0.57836,-0.78918 1,-1 0.11162,-0.0558 4.88838,-0.0558 5,0 0.42164,0.21082 0.57836,0.78918 1,1 0.30433,0.15217 2.54964,0 3,0 2,0 4,0 6,0" style="fill:none;stroke:#000000;stroke-width:1px;stroke-linecap:butt;stroke-linejoin:miter;stroke-opacity:1"/>
      <path id="path3544-1" d="m 337,162.36218 c 1.33333,1 2.57085,2.14251 4,3 0.28583,0.1715 0.70186,-0.14907 1,0 0.84327,0.42164 1.15673,1.57837 2,2 0.29814,0.14907 0.70186,-0.14907 1,0 0.42164,0.21082 0.57836,0.78918 1,1 0.29814,0.14907 0.7643,-0.2357 1,0 0.2357,0.2357 -0.2357,0.7643 0,1 0.2357,0.2357 0.70186,-0.14907 1,0 2.4714,1.2357 -0.34518,1 2,1" style="fill:none;stroke:#000000;stroke-width:1px;stroke-linecap:butt;stroke-linejoin:miter;stroke-opacity:1"/>
    </g>
    <path style="fill:none;stroke:#000000;stroke-width:1px;stroke-linecap:butt;stroke-linejoin:miter;stroke-opacity:1" d="m 511.10742,264.54761 c -0.57111,-2.85556 -0.50507,-1.66691 -0.50507,-3.53553 0,-0.33672 -0.066,-0.67997 0,-1.01015 0.10441,-0.52206 0.41755,-0.99008 0.50507,-1.51523 0.083,-0.49821 -0.083,-1.01703 0,-1.51523 0.0875,-0.52515 0.41755,-0.99008 0.50508,-1.51523 0.083,-0.4982 -0.0714,-1.01523 0,-1.51523 0.24471,-1.71299 0.97048,-3.4165 1.51523,-5.05076 1.67513,-5.02538 -0.47619,1.19048 1.01015,-2.52538 0.19773,-0.49432 0.23116,-1.0587 0.50508,-1.51523 0.245,-0.40833 0.72444,-0.6292 1.01015,-1.01015 1.1062,-1.47494 -0.25212,-0.6948 1.51523,-2.02031 0.30117,-0.22588 0.69692,-0.29625 1.01015,-0.50508 0.19811,-0.13207 0.30697,-0.373 0.50508,-0.50507 0.32187,-0.21458 2.70284,-1.43333 3.03046,-1.51523 0.38409,-0.096 2.10243,0 2.52538,0 0.17206,0 1.74695,-0.0911 2.0203,0 0.35714,0.11905 0.65301,0.38603 1.01015,0.50508 1.50353,0.50117 -1.03631,-1.19596 1.51523,0.50507 0.19811,0.13207 0.29212,0.3986 0.50508,0.50508 0.15058,0.0753 0.33672,0 0.50508,0 0.33671,0.16836 0.69691,0.29625 1.01015,0.50507 0.19811,0.13208 0.33672,0.33672 0.50507,0.50508 0.16836,0.16836 0.37301,0.30697 0.50508,0.50508 0.20882,0.31323 0.23888,0.74395 0.50508,1.01015 1.22673,1.22673 0.74166,-0.15019 1.51523,1.01015 0.20882,0.31324 0.29625,0.69692 0.50507,1.01016 0.49547,0.7432 1.52484,1.27709 2.02031,2.0203 2.47809,2.98501 -0.34362,-0.18215 0.50507,1.51523 0.10648,0.21296 0.42979,0.2792 0.50508,0.50508 0.0818,0.24538 0,3.01987 0,3.53553 0,1.01015 0,2.0203 0,3.03046 0,0.33671 0,0.67343 0,1.01015 0,0.16836 0.0532,0.34536 0,0.50508 -0.11905,0.35714 -0.38603,0.65301 -0.50508,1.01015 -0.10648,0.31944 0.10648,0.69071 0,1.01015 -0.11904,0.35714 -0.38603,0.65301 -0.50507,1.01015 -0.10648,0.31944 0.15058,0.70899 0,1.01016 -0.10648,0.21295 -0.3986,0.29211 -0.50508,0.50507 -0.10013,0.20026 0.10326,1.41197 0,1.51523 -0.11905,0.11905 -0.38603,-0.11905 -0.50508,0 -0.15639,0.1564 0.1564,2.36899 0,2.52538 -0.11904,0.11905 -0.38602,-0.11905 -0.50507,0 -0.25254,0.25254 0.25254,1.26269 0,1.51523 -0.11905,0.11905 -0.33672,0 -0.50508,0 -0.16836,0 -0.38603,0.11905 -0.50507,0 -0.11905,-0.11905 0.11904,-0.38603 0,-0.50508 -0.11905,-0.11904 -0.38603,0.11905 -0.50508,0 -0.11905,-0.11904 0.11905,-0.38602 0,-0.50507 -0.11905,-0.11905 -0.38603,0.11905 -0.50508,0 -0.11904,-0.11905 0.0753,-0.35449 0,-0.50508 -0.10648,-0.21296 -0.39859,-0.29212 -0.50507,-0.50507 -0.0753,-0.15059 0.11904,-0.38603 0,-0.50508 -0.11905,-0.11905 -0.38603,0.11905 -0.50508,0 -0.11905,-0.11905 -0.16836,-0.50508 0,-0.50508 0.0886,0 -0.092,1.83639 0,2.02031 0.10648,0.21296 0.3986,0.29212 0.50508,0.50507 0.13475,0.26951 -0.13475,0.74066 0,1.01016 0.10648,0.21296 0.39859,0.29211 0.50507,0.50507 0.0753,0.15059 -0.11904,0.38603 0,0.50508 0.11905,0.11905 0.38603,0.11905 0.50508,0 0.11905,-0.11905 -0.11905,-0.38603 0,-0.50508 0.11905,-0.11904 0.38603,0.11905 0.50508,0 0.11904,-0.11904 -0.0753,-0.35449 0,-0.50507 0.21295,-0.42592 0.79719,-0.58424 1.01015,-1.01016 0.0753,-0.15058 -0.11905,-0.38602 0,-0.50507 0.11905,-0.11905 0.35449,0.0753 0.50507,0 0.21296,-0.10648 0.33672,-0.33672 0.50508,-0.50508 0.16836,-0.16836 0.3986,-0.29212 0.50508,-0.50507 0.0753,-0.15059 -0.11905,-0.38603 0,-0.50508 0.11904,-0.11905 0.33671,0 0.50507,0" id="path4527"/>
    <path style="fill:none;stroke:#000000;stroke-width:1px;stroke-linecap:butt;stroke-linejoin:miter;stroke-opacity:1" d="m 508.07697,262.52731 c -0.77583,1.72913 1.0762,1.64733 1.51522,2.52538 0.0753,0.15058 -0.0753,0.35449 0,0.50508 0.10648,0.21295 0.3986,0.29211 0.50508,0.50507 0.0753,0.15059 -0.11905,0.38603 0,0.50508 0.11905,0.11905 0.38603,-0.11905 0.50508,0 0.11904,0.11905 0.16836,0.50507 0,0.50507 -0.16836,0 -0.0753,-0.35449 0,-0.50507 0.10648,-0.21296 0.39859,-0.29212 0.50507,-0.50508 0.0753,-0.15058 -0.0753,-0.35449 0,-0.50507 0.10648,-0.21296 0.3986,-0.29212 0.50508,-0.50508 0.0753,-0.15058 -0.0753,-0.35449 0,-0.50508 0.10648,-0.21296 0.3986,-0.29211 0.50508,-0.50507 0.0753,-0.15059 -0.0753,-0.35449 0,-0.50508 0.0671,-0.1341 1.38112,-1.44818 1.51522,-1.51523 0.15059,-0.0753 0.38603,0.11905 0.50508,0 0.11905,-0.11905 0,-0.33672 0,-0.50507" id="path4529"/>
    <path style="fill:none;stroke:#000000;stroke-width:1px;stroke-linecap:butt;stroke-linejoin:miter;stroke-opacity:1" d="m 74,958.36218 c -5.962848,-1.92569 1.490712,-7.01857 0,-10 -0.421637,-0.84327 -1.578363,-1.15672 -2,-2 -0.22413,-0.44826 0,-7.52474 0,-8 0,-5.33333 0,-10.66666 0,-16 0,-3.33333 0.65372,-6.7314 0,-10 -0.292353,-1.46176 -1.707647,-2.53823 -2,-4 -0.392232,-1.96116 0,-4 0,-6 0,-4.66666 0,-9.33333 0,-14 0,-2 0.328798,-4.02721 0,-6 -0.346584,-2.0795 -1.653417,-3.9205 -2,-6 -0.328798,-1.97279 0,-4 0,-6 0,-5.33333 0,-10.66666 0,-16 0,-13.33333 0,-26.66666 0,-40 0,-6 0,-12 0,-18 0,-2.66666 0.377124,-5.36013 0,-8 -0.298142,-2.08699 -1.653417,-3.9205 -2,-6 -0.547997,-3.28798 0,-6.66666 0,-10 0,-6 0,-12 0,-18 0,-1.33333 0.261488,-2.69256 0,-4 -0.413449,-2.06724 -1.586551,-3.93275 -2,-6 -0.65372,-3.2686 0.547997,-6.71202 0,-10 -0.346584,-2.0795 -1.653417,-3.9205 -2,-6 -0.904715,-5.42829 0.904715,-12.5717 0,-18 -0.346584,-2.0795 -1.653417,-3.9205 -2,-6 -0.328798,-1.97279 0,-4 0,-6 0,-2 0,-4 0,-6 0,-4.09375 0,-7.90625 0,-12 0,-1.33333 -0.261488,-2.69256 0,-4 0.413449,-2.06724 1.586551,-3.93275 2,-6 0.261488,-1.30744 0,-2.66666 0,-4 0,-2.66666 0,-5.33333 0,-8 0,-6.66666 0,-13.33333 0,-20 0,-5.54623 -0.298142,3.19257 2,-6 0.406601,-1.6264 0,-9.90632 0,-12 0,-2 0,-4 0,-6 0,-0.66666 0.471404,-1.52859 0,-2 -0.471405,-0.4714 -1.528596,0.47141 -2,0 -0.471405,-0.4714 -0.471405,-1.52859 0,-2 0.471404,-0.4714 1.403715,0.29815 2,0 0.843274,-0.42163 1.156726,-1.57836 2,-2 0.596285,-0.29814 1.528595,0.47141 2,0 0.471404,-0.4714 -0.298142,-1.40371 0,-2 4.16176,-8.32352 -0.138071,2.13807 4,-2 0.471404,-0.4714 -0.298142,-1.40371 0,-2 0.421637,-0.84327 1.333333,-1.33333 2,-2 0.666667,-0.66666 1.333333,-1.33333 2,-2 2.666667,-2.66666 5.333333,-5.33333 8,-8 2,-2 4,-4 6,-6 0.666667,-0.66666 1.477024,-1.21553 2,-2 0.826898,-1.24034 0.945907,-2.9459 2,-4 1.054093,-1.05409 2.945907,-0.9459 4,-2 1.054093,-1.05409 1.105573,-2.80743 2,-4 2.8,-3.73333 7.2,-6.26666 10,-10 0.89443,-1.19257 1.1731,-2.75965 2,-4 1.96196,-2.94294 6.03804,-5.05705 8,-8 0.8269,-1.24034 1.1731,-2.75965 2,-4 1.04595,-1.56893 2.95405,-2.43107 4,-4 0.8269,-1.24034 1.1731,-2.75965 2,-4 0.52298,-0.78446 1.33333,-1.33333 2,-2 0.66667,-0.66666 1.15673,-1.57836 2,-2 0.59628,-0.29814 1.5286,0.47141 2,0 0.4714,-0.4714 -0.29814,-1.40371 0,-2 1.2,-2.4 4.8,-3.6 6,-6 0.29814,-0.59628 -0.4714,-1.52859 0,-2 0.4714,-0.4714 1.5286,0.47141 2,0 0.4714,-0.4714 -0.4714,-1.52859 0,-2 0.4714,-0.4714 1.5286,0.47141 2,0 0.4714,-0.4714 -0.4714,-1.52859 0,-2 0.94281,-0.94281 3.05719,0.94281 4,0 0.94281,-0.94281 -0.94281,-3.05719 0,-4 0.4714,-0.4714 1.5286,0.47141 2,0 0.4714,-0.4714 -0.29814,-1.40371 0,-2 0.42164,-0.84327 1.57836,-1.15672 2,-2 0.29814,-0.59628 -0.4714,-1.52859 0,-2 0.94281,-0.94281 3.05719,0.94281 4,0 0.4714,-0.4714 -0.4714,-1.52859 0,-2 0.0643,-0.0643 5.51495,0 6,0 4.69036,0 -0.94281,0.47141 4,-2 1.26174,-0.63087 8.73826,0.63087 10,0 0.84327,-0.42163 1.15673,-1.57836 2,-2 1.25704,-0.62852 6.74296,0.62853 8,0 0.84327,-0.42163 1.15673,-1.57836 2,-2 1.6,-0.8 4.4,0.8 6,0 0.84327,-0.42163 1.15673,-1.57836 2,-2 1.26863,-0.63431 8.70075,0.64963 10,0 0.84327,-0.42163 1.15673,-1.57836 2,-2 0.52588,-0.26294 6.95416,0 8,0 6,0 12,0 18,0 0.943,0 9.90936,-0.0906 10,0 0.4714,0.47141 -0.4714,1.5286 0,2 0.0906,0.0906 9.057,0 10,0" id="path5084"/>
    <path style="fill:none;stroke:#000000;stroke-width:1px;stroke-linecap:butt;stroke-linejoin:miter;stroke-opacity:1" d="m 384,500.36218 c 4.66667,0 9.33333,0 14,0 1.33333,0 2.70648,0.32338 4,0 1.4462,-0.36155 2.5538,-1.63845 4,-2 1.57323,-0.39331 9.92015,0 12,0 8.66667,0 17.33333,0 26,0 2.14567,0 12.678,0.44067 14,0 1.41421,-0.4714 2.58579,-1.52859 4,-2 1.15855,-0.38618 6.26683,0 8,0 5.33333,0 10.66667,0 16,0 5.33333,0 10.66667,0 16,0 0.66667,0 1.33333,0 2,0 0.66667,0 1.5286,-0.4714 2,0 0.4714,0.47141 -0.4714,1.5286 0,2 0.0805,0.0805 7.26553,0 8,0 4.69036,0 -0.94281,-0.4714 4,2 0.59628,0.29815 1.33333,0 2,0 0.66667,0 1.33333,0 2,0 2.24588,0 12.57019,-0.4766 14,0 1.41421,0.47141 2.58579,1.5286 4,2 1.42981,0.47661 11.75411,0 14,0 1.33333,0 2.73509,-0.42163 4,0 1.41421,0.47141 2.58579,1.5286 4,2 1.09328,0.36443 12.43663,0 14,0 5.33333,0 10.66667,0 16,0 0.47526,0 7.55174,0.22413 8,0 0.84327,-0.42163 1.10557,-1.70185 2,-2 1.3606,-0.45353 8.93952,0.53024 10,0 0.84327,-0.42163 1.05719,-2 2,-2 0.66667,0 -0.66667,2 0,2 0.78105,0 2.25245,-3.74754 4,-2 0.4714,0.47141 -0.4714,1.5286 0,2 0.4714,0.47141 1.5286,-0.4714 2,0 0.4714,0.47141 -0.29814,1.40372 0,2 0.26853,0.53707 3.73147,3.46294 4,4 0.29814,0.59629 -0.29814,1.40372 0,2 0.88634,1.77268 4.78625,4.17937 6,6 0.8269,1.24035 1.1731,2.75966 2,4 1.04595,1.56893 2.95405,2.43107 4,4 0.8269,1.24035 0.94591,2.94591 2,4 1.05409,1.0541 2.94591,0.94591 4,2 1.05409,1.0541 1.10557,2.80743 2,4 1.13137,1.5085 2.86863,2.49151 4,4 0.89443,1.19257 0.94591,2.94591 2,4 1.05409,1.0541 2.80743,1.10558 4,2 14.38595,10.78947 -4.22076,-2.22076 6,8 1.05409,1.0541 2.75965,1.1731 4,2 3.05324,2.0355 2.94676,5.96451 6,8 1.24035,0.8269 2.75965,1.1731 4,2 1.56893,1.04596 2.66667,2.66667 4,4 2.66667,2.66667 5.33333,5.33334 8,8 1.05293,1.05293 4.93183,5.46592 6,6 0.59628,0.29815 1.5286,-0.4714 2,0 0.4714,0.47141 -0.29814,1.40372 0,2 0.42164,0.84328 1.57836,1.15673 2,2 0.29814,0.59629 -0.4714,1.5286 0,2 0.4714,0.47141 2,-0.66666 2,0 0,0.66667 -1.5286,0.47141 -2,0 -0.4714,-0.4714 0.4714,-1.52859 0,-2 -0.4714,-0.4714 -1.33333,0 -2,0 -0.66667,0 -1.5286,-0.4714 -2,0 -0.4714,0.47141 0.4714,1.5286 0,2 -0.4714,0.47141 -1.5286,-0.4714 -2,0 -0.4714,0.47141 0,1.33334 0,2 0,0.66667 0,1.33334 0,2 0,4.66667 0,9.33334 0,14 0,2 0.48507,4.05972 0,6 -0.36155,1.44621 -1.63845,2.5538 -2,4 -0.32338,1.29353 0,2.66667 0,4 0,1.33334 -0.32338,2.70648 0,4 0.36155,1.44621 1.63845,2.5538 2,4 0.32338,1.29353 0,2.66667 0,4 0,2 0,4 0,6 0,4.66667 0,9.33334 0,14 0,7.33334 0,14.66667 0,22 0,2 0,4 0,6 0,2 0.3288,4.02721 0,6 -0.34658,2.0795 -1.65342,3.9205 -2,6 -0.3288,1.97279 0,4 0,6 0,4 0,8 0,12 0,14.66667 0,29.33334 0,44 0,39.33334 0,78.66667 0,118 0,34.66667 0,69.33334 0,104 0,3.33334 0,6.66667 0,10 0,0.66667 0,1.33334 0,2 0,0.66667 -0.29814,1.40372 0,2 0.42164,0.84328 1.57836,1.15673 2,2 0.59628,1.19257 -0.59629,2.80743 0,4 0.42164,0.84328 1.57836,1.15673 2,2 0.59628,1.19257 -0.59629,2.80742 0,4.00002 2.4714,4.9428 2,-0.6904 2,4 0,0.6666 0.66667,2 0,2 -1.33333,0 0.94281,-3.0572 0,-4 -0.4714,-0.4714 -1.33333,0 -2,0 -0.66667,0 -1.33333,0 -2,0" id="path5086"/>
    <path style="fill:none;stroke:#000000;stroke-width:1px;stroke-linecap:butt;stroke-linejoin:miter;stroke-opacity:1" d="m 682,1006.3622 c -2.66667,0 -8,2.6666 -8,0 0,-2.6667 10.66667,0 8,0 -4.66667,0 -9.33333,0 -14,0 -1.31422,0 -4.8716,0.3761 -6,0 -1.41421,-0.4714 -2.58579,-1.5286 -4,-2 -1.89737,-0.6325 -4.10263,0.6324 -6,0 -0.89443,-0.2982 -1.10557,-1.7019 -2,-2 -1.26491,-0.4217 -2.70648,0.3234 -4,0 -1.4462,-0.3616 -2.58579,-1.5286 -4,-2 -0.63246,-0.2108 -1.36754,0.2108 -2,0 -1.41421,-0.47142 -2.53824,-1.70766 -4,-2.00002 -1.96116,-0.39223 -4.03884,0.39223 -6,0 -1.46176,-0.29235 -2.5538,-1.63845 -4,-2 -1.29352,-0.32338 -2.69256,0.26149 -4,0 -2.06725,-0.41345 -3.93275,-1.58655 -6,-2 -1.30744,-0.26149 -2.69256,0.26149 -4,0 -2.06725,-0.41345 -3.9205,-1.65341 -6,-2 -1.97279,-0.3288 -4.02721,0.3288 -6,0 -2.0795,-0.34658 -3.9205,-1.65341 -6,-2 -1.97279,-0.3288 -4.02721,0.3288 -6,0 -2.0795,-0.34658 -3.9205,-1.65341 -6,-2 -1.97279,-0.3288 -4.0201,0.28285 -6,0 -2.72111,-0.38873 -5.27889,-1.61127 -8,-2 -4.61976,-0.65996 -9.38024,0.65997 -14,0 -2.087,-0.29814 -3.913,-1.70185 -6,-2 -2.63987,-0.37712 -5.33333,0 -8,0 -5.33333,0 -10.66667,0 -16,0 -8,0 -16,0 -24,0 -2.66667,0 -5.33333,0 -8,0 -3.33333,0 -6.68705,-0.3681 -10,0 -2.73193,0.30355 -5.27249,1.65906 -8,2 -2.64607,0.33076 -5.33333,0 -8,0 -8.66667,0 -17.33333,0 -26,0 -3.33333,0 -6.68705,-0.3681 -10,0 -2.73193,0.30355 -5.27249,1.65906 -8,2 -2.64607,0.33076 -5.33333,0 -8,0 -3.33333,0 -6.66667,0 -10,0 -12,0 -24,0 -36,0 -8.66667,0 -17.33333,0 -26,0 -2.66667,0 -5.35393,0.33076 -8,0 -2.72751,-0.34094 -5.26808,-1.69645 -8,-2 -3.31295,-0.3681 -6.66667,0 -10,0 -8,0 -16,0 -24,0 -2.66667,0 -5.35393,0.33076 -8,0 -2.72751,-0.34094 -5.27249,-1.65906 -8,-2 -2.64607,-0.33076 -5.33333,0 -8,0 -5.33333,0 -10.66667,0 -16,0 -2.66667,0 -5.35393,0.33076 -8,0 -2.72751,-0.34094 -5.27889,-1.61127 -8,-2 -1.9799,-0.28284 -4,0 -6,0 -2.66667,0 -5.33333,0 -8,0 -2.66667,0 -5.36013,-0.37712 -8,0 -2.087,0.29815 -3.913,1.70186 -6,2 -2.63987,0.37713 -5.33333,0 -8,0 -2,0 -4,0 -6,0 -2,0 -4.02721,-0.3288 -6,0 -2.0795,0.34659 -3.9205,1.65342 -6,2 -3.94558,0.6576 -8.05442,-0.65759 -12,0 -2.0795,0.34659 -3.93275,1.58655 -6,2 -3.70353,0.74071 -10.29647,-0.7407 -14,0 -2.06725,0.41345 -3.93275,1.58655 -6,2 -1.30744,0.26149 -2.66667,0 -4,0 -2.66667,0 -5.33333,0 -8,0 -1.33333,0 -2.73509,-0.42163 -4,0 -0.89443,0.29815 -1.10557,1.70186 -2,2 -1.89737,0.63246 -4,0 -6,0 -1.42982,0 -10.97622,-0.34126 -12,0 -0.89443,0.29815 -1.15673,1.57837 -2,2 -0.69725,0.34863 -10.531842,0 -12,0 -0.666667,0 -1.403715,-0.29814 -2,0 -0.843274,0.42164 -1.105573,1.70186 -2,2 -1.264911,0.42164 -2.666667,0 -4,0 -0.666667,0 -1.403715,-0.29814 -2,0 -0.843274,0.42164 -1.156726,1.57837 -2,2 -1.6,0.8 -4.4,-0.8 -6,0 -0.843274,0.42164 -1.156726,1.57837 -2,2.00002 -0.596285,0.2981 -1.333333,0 -2,0 -0.666667,0 -1.333333,0 -2,0" id="path5090"/>
  </g>
</svg>
